<?xml version="1.0" encoding="UTF-8"?>
<!DOCTYPE svg PUBLIC "-//W3C//DTD SVG 1.1//EN" "http://www.w3.org/Graphics/SVG/1.1/DTD/svg11.dtd">
<svg width="178mm" height="120mm" viewBox="0 0 17800 12000" version="1.1" baseProfile="tiny" xmlns="http://www.w3.org/2000/svg" stroke-width="28.222" stroke-linejoin="round" xml:space="preserve">
 <path fill="rgb(114,159,207)" stroke="none" d="M 0,0 L 17749,0 17749,12004 0,12004 0,0 Z"/>
 <path fill="rgb(255,255,255)" stroke="none" d="M 8875,12004 L 0,12004 0,0 17749,0 17749,12004 8875,12004 Z"/>
 <path fill="none" stroke="rgb(179,179,179)" stroke-linejoin="round" d="M 8006,10359 L 2672,10359 2672,1496 13340,1496 13340,10359 8006,10359 Z"/>
 <path fill="none" stroke="rgb(179,179,179)" stroke-linejoin="round" d="M 13340,10358 L 2672,10358"/>
 <path fill="none" stroke="rgb(179,179,179)" stroke-linejoin="round" d="M 13340,9373 L 2672,9373"/>
 <path fill="none" stroke="rgb(179,179,179)" stroke-linejoin="round" d="M 13340,8388 L 2672,8388"/>
 <path fill="none" stroke="rgb(179,179,179)" stroke-linejoin="round" d="M 13340,7403 L 2672,7403"/>
 <path fill="none" stroke="rgb(179,179,179)" stroke-linejoin="round" d="M 13340,6418 L 2672,6418"/>
 <path fill="none" stroke="rgb(179,179,179)" stroke-linejoin="round" d="M 13340,5434 L 2672,5434"/>
 <path fill="none" stroke="rgb(179,179,179)" stroke-linejoin="round" d="M 13340,4449 L 2672,4449"/>
 <path fill="none" stroke="rgb(179,179,179)" stroke-linejoin="round" d="M 13340,3464 L 2672,3464"/>
 <path fill="none" stroke="rgb(179,179,179)" stroke-linejoin="round" d="M 13340,2479 L 2672,2479"/>
 <path fill="none" stroke="rgb(179,179,179)" stroke-linejoin="round" d="M 13340,1495 L 2672,1495"/>
 <path fill="none" stroke="rgb(179,179,179)" stroke-linejoin="round" d="M 2672,10508 L 2672,10358"/>
 <path fill="none" stroke="rgb(179,179,179)" stroke-linejoin="round" d="M 3857,10508 L 3857,10358"/>
 <path fill="none" stroke="rgb(179,179,179)" stroke-linejoin="round" d="M 5042,10508 L 5042,10358"/>
 <path fill="none" stroke="rgb(179,179,179)" stroke-linejoin="round" d="M 6228,10508 L 6228,10358"/>
 <path fill="none" stroke="rgb(179,179,179)" stroke-linejoin="round" d="M 7413,10508 L 7413,10358"/>
 <path fill="none" stroke="rgb(179,179,179)" stroke-linejoin="round" d="M 8599,10508 L 8599,10358"/>
 <path fill="none" stroke="rgb(179,179,179)" stroke-linejoin="round" d="M 9783,10508 L 9783,10358"/>
 <path fill="none" stroke="rgb(179,179,179)" stroke-linejoin="round" d="M 10969,10508 L 10969,10358"/>
 <path fill="none" stroke="rgb(179,179,179)" stroke-linejoin="round" d="M 12154,10508 L 12154,10358"/>
 <path fill="none" stroke="rgb(179,179,179)" stroke-linejoin="round" d="M 13340,10508 L 13340,10358"/>
 <path fill="none" stroke="rgb(179,179,179)" stroke-linejoin="round" d="M 2672,10358 L 13340,10358"/>
 <path fill="none" stroke="rgb(179,179,179)" stroke-linejoin="round" d="M 2522,10358 L 2672,10358"/>
 <path fill="none" stroke="rgb(179,179,179)" stroke-linejoin="round" d="M 2522,9373 L 2672,9373"/>
 <path fill="none" stroke="rgb(179,179,179)" stroke-linejoin="round" d="M 2522,8388 L 2672,8388"/>
 <path fill="none" stroke="rgb(179,179,179)" stroke-linejoin="round" d="M 2522,7403 L 2672,7403"/>
 <path fill="none" stroke="rgb(179,179,179)" stroke-linejoin="round" d="M 2522,6418 L 2672,6418"/>
 <path fill="none" stroke="rgb(179,179,179)" stroke-linejoin="round" d="M 2522,5434 L 2672,5434"/>
 <path fill="none" stroke="rgb(179,179,179)" stroke-linejoin="round" d="M 2522,4449 L 2672,4449"/>
 <path fill="none" stroke="rgb(179,179,179)" stroke-linejoin="round" d="M 2522,3464 L 2672,3464"/>
 <path fill="none" stroke="rgb(179,179,179)" stroke-linejoin="round" d="M 2522,2479 L 2672,2479"/>
 <path fill="none" stroke="rgb(179,179,179)" stroke-linejoin="round" d="M 2522,1495 L 2672,1495"/>
 <path fill="none" stroke="rgb(179,179,179)" stroke-linejoin="round" d="M 2672,10358 L 2672,1495"/>
 <path fill="none" stroke="rgb(0,69,134)" stroke-width="105" stroke-linejoin="round" d="M 2672,10357 L 2731,10357 2790,10357 2849,10357 2909,10357 2968,10357 3027,10357 3086,10357 3146,10357 3205,10357 3264,10357 3323,10357 3383,10357 3442,10357 3501,10357 3561,10357 3620,10357 3679,10357 3738,10357 3798,10357 3857,10357 3916,10357 3975,10357 4035,10357 4094,10357 4153,10357 4213,10356 4272,10356 4331,10356 4390,10356 4450,10356 4509,10356 4568,10355 4627,10355 4687,10355 4746,10355 4805,10354 4865,10354 4924,10354 4983,10353 5042,10353 5102,10352 5161,10352 5220,10351 5279,10351 5339,10350 5398,10350 5457,10349 5517,10348 5576,10347 5635,10347 5694,10346 5754,10345 5813,10344 5872,10343 5931,10341 5991,10340 6050,10339 6109,10338 6169,10336 6228,10335 6287,10333 6346,10331 6406,10329 6465,10328 6524,10326 6583,10323 6643,10321 6702,10319 6761,10316 6821,10314 6880,10311 6939,10308 6998,10305 7058,10302 7117,10299 7176,10295 7235,10291 7295,10288 7354,10284 7413,10279 7473,10275 7532,10270 7591,10266 7650,10261 7710,10255 7769,10250 7828,10244 7887,10239 7947,10232 8006,10226 8065,10219 8125,10212 8184,10205 8243,10198 8302,10190 8362,10182 8421,10173 8480,10165 8539,10156 8599,10146 8658,10137 8717,10126 8777,10116 8836,10105 8894,10094 8953,10082 9013,10070 9072,10057 9131,10044 9190,10030 9250,10016 9309,10001 9368,9986 9428,9970 9487,9953 9546,9936 9605,9918 9665,9899 9724,9879 9783,9859 9842,9838 9902,9817 9961,9794 10020,9771 10080,9747 10139,9722 10198,9696 10257,9670 10317,9643 10376,9614 10435,9585 10494,9556 10554,9525 10613,9493 10672,9461 10732,9427 10791,9393 10850,9358 10909,9322 10969,9285 11028,9247 11087,9208 11146,9168 11206,9127 11265,9084 11324,9041 11384,8996 11443,8949 11502,8901 11561,8852 11621,8801 11680,8748 11739,8694 11798,8637 11858,8579 11917,8519 11976,8457 12036,8392 12095,8326 12154,8257 12213,8186 12273,8113 12332,8038 12391,7960 12450,7881 12510,7801 12569,7718 12628,7634 12688,7549 12747,7462 12806,7375 12865,7286 12925,7196 12984,7106 13043,7015 13102,6923 13162,6831 13221,6738 13280,6646 13340,6553"/>
 <path fill="none" stroke="rgb(255,66,14)" stroke-width="105" stroke-linejoin="round" d="M 2672,10357 L 2731,10357 2790,10357 2849,10357 2909,10357 2968,10357 3027,10357 3086,10357 3146,10357 3205,10357 3264,10357 3323,10357 3383,10357 3442,10357 3501,10357 3561,10357 3620,10357 3679,10357 3738,10357 3798,10357 3857,10357 3916,10357 3975,10357 4035,10357 4094,10357 4153,10357 4213,10357 4272,10357 4331,10357 4390,10357 4450,10357 4509,10357 4568,10357 4627,10357 4687,10357 4746,10357 4805,10357 4865,10356 4924,10356 4983,10356 5042,10356 5102,10356 5161,10356 5220,10356 5279,10356 5339,10356 5398,10356 5457,10356 5517,10356 5576,10355 5635,10355 5694,10355 5754,10355 5813,10355 5872,10355 5931,10355 5991,10354 6050,10354 6109,10354 6169,10354 6228,10354 6287,10354 6346,10353 6406,10353 6465,10353 6524,10353 6583,10353 6643,10352 6702,10352 6761,10352 6821,10352 6880,10351 6939,10351 6998,10351 7058,10351 7117,10350 7176,10350 7235,10350 7295,10349 7354,10349 7413,10349 7473,10348 7532,10348 7591,10347 7650,10347 7710,10346 7769,10346 7828,10346 7887,10345 7947,10345 8006,10344 8065,10344 8125,10343 8184,10342 8243,10342 8302,10341 8362,10341 8421,10340 8480,10339 8539,10339 8599,10338 8658,10337 8717,10337 8777,10336 8836,10335 8894,10334 8953,10334 9013,10333 9072,10332 9131,10331 9190,10330 9250,10329 9309,10328 9368,10327 9428,10326 9487,10325 9546,10324 9605,10323 9665,10322 9724,10321 9783,10320 9842,10319 9902,10317 9961,10316 10020,10315 10080,10313 10139,10312 10198,10311 10257,10309 10317,10308 10376,10306 10435,10305 10494,10303 10554,10301 10613,10300 10672,10298 10732,10296 10791,10295 10850,10293 10909,10291 10969,10289 11028,10287 11087,10285 11146,10283 11206,10281 11265,10279 11324,10277 11384,10275 11443,10273 11502,10271 11561,10268 11621,10266 11680,10264 11739,10261 11798,10259 11858,10256 11917,10254 11976,10251 12036,10248 12095,10245 12154,10243 12213,10240 12273,10237 12332,10234 12391,10230 12450,10227 12510,10224 12569,10221 12628,10217 12688,10214 12747,10211 12806,10207 12865,10204 12925,10200 12984,10197 13043,10193 13102,10190 13162,10186 13221,10183 13280,10179 13340,10175"/>
 <path fill="none" stroke="rgb(255,211,32)" stroke-width="105" stroke-linejoin="round" d="M 2672,10357 L 2731,10357 2790,10357 2849,10357 2909,10357 2968,10357 3027,10357 3086,10357 3146,10357 3205,10357 3264,10357 3323,10357 3383,10357 3442,10357 3501,10357 3561,10357 3620,10356 3679,10356 3738,10356 3798,10356 3857,10356 3916,10356 3975,10355 4035,10355 4094,10355 4153,10355 4213,10354 4272,10354 4331,10353 4390,10353 4450,10352 4509,10352 4568,10351 4627,10351 4687,10350 4746,10349 4805,10348 4865,10347 4924,10346 4983,10345 5042,10344 5102,10343 5161,10342 5220,10340 5279,10339 5339,10337 5398,10335 5457,10334 5517,10332 5576,10329 5635,10327 5694,10325 5754,10322 5813,10320 5872,10317 5931,10314 5991,10311 6050,10308 6109,10304 6169,10301 6228,10297 6287,10293 6346,10288 6406,10284 6465,10279 6524,10274 6583,10269 6643,10264 6702,10258 6761,10252 6821,10246 6880,10239 6939,10232 6998,10225 7058,10217 7117,10209 7176,10200 7235,10191 7295,10182 7354,10172 7413,10162 7473,10152 7532,10141 7591,10129 7650,10117 7710,10104 7769,10091 7828,10078 7887,10063 7947,10048 8006,10033 8065,10017 8125,10000 8184,9983 8243,9965 8302,9946 8362,9927 8421,9907 8480,9886 8539,9864 8599,9842 8658,9819 8717,9795 8777,9770 8836,9744 8894,9717 8953,9689 9013,9661 9072,9631 9131,9600 9190,9568 9250,9534 9309,9500 9368,9464 9428,9427 9487,9389 9546,9349 9605,9308 9665,9265 9724,9221 9783,9175 9842,9128 9902,9079 9961,9028 10020,8976 10080,8922 10139,8866 10198,8809 10257,8750 10317,8689 10376,8627 10435,8563 10494,8496 10554,8428 10613,8359 10672,8287 10732,8213 10791,8138 10850,8060 10909,7980 10969,7899 11028,7815 11087,7730 11146,7642 11206,7551 11265,7458 11324,7363 11384,7264 11443,7162 11502,7058 11561,6950 11621,6838 11680,6723 11739,6605 11798,6482 11858,6356 11917,6225 11976,6090 12036,5952 12095,5808 12154,5659 12213,5506 12273,5348 12332,5186 12391,5020 12450,4850 12510,4676 12569,4499 12628,4318 12688,4135 12747,3949 12806,3761 12865,3571 12925,3378 12984,3184 13043,2989 13102,2792 13162,2594 13221,2396 13280,2197 13340,1998"/>
 <path fill="none" stroke="rgb(87,157,28)" stroke-width="105" stroke-linejoin="round" d="M 2672,10357 L 2731,10357 2790,10357 2849,10357 2909,10357 2968,10357 3027,10357 3086,10357 3146,10357 3205,10357 3264,10357 3323,10357 3383,10357 3442,10357 3501,10357 3561,10357 3620,10357 3679,10356 3738,10356 3798,10356 3857,10356 3916,10356 3975,10356 4035,10356 4094,10355 4153,10355 4213,10355 4272,10355 4331,10354 4390,10354 4450,10354 4509,10353 4568,10353 4627,10352 4687,10352 4746,10351 4805,10351 4865,10350 4924,10349 4983,10348 5042,10348 5102,10347 5161,10346 5220,10345 5279,10344 5339,10343 5398,10342 5457,10340 5517,10339 5576,10338 5635,10336 5694,10335 5754,10333 5813,10331 5872,10329 5931,10328 5991,10326 6050,10323 6109,10321 6169,10319 6228,10316 6287,10314 6346,10311 6406,10308 6465,10305 6524,10302 6583,10299 6643,10295 6702,10291 6761,10288 6821,10284 6880,10279 6939,10275 6998,10270 7058,10265 7117,10260 7176,10255 7235,10250 7295,10244 7354,10238 7413,10231 7473,10225 7532,10218 7591,10211 7650,10203 7710,10196 7769,10188 7828,10179 7887,10171 7947,10161 8006,10152 8065,10142 8125,10132 8184,10122 8243,10111 8302,10099 8362,10088 8421,10075 8480,10063 8539,10050 8599,10036 8658,10022 8717,10008 8777,9993 8836,9977 8894,9961 8953,9945 9013,9928 9072,9910 9131,9892 9190,9873 9250,9853 9309,9833 9368,9811 9428,9790 9487,9767 9546,9744 9605,9720 9665,9695 9724,9669 9783,9643 9842,9615 9902,9587 9961,9558 10020,9528 10080,9497 10139,9465 10198,9432 10257,9398 10317,9364 10376,9328 10435,9292 10494,9254 10554,9216 10613,9176 10672,9136 10732,9095 10791,9053 10850,9009 10909,8965 10969,8920 11028,8873 11087,8826 11146,8777 11206,8728 11265,8676 11324,8624 11384,8570 11443,8514 11502,8457 11561,8398 11621,8337 11680,8275 11739,8210 11798,8143 11858,8075 11917,8004 11976,7931 12036,7855 12095,7777 12154,7697 12213,7614 12273,7529 12332,7441 12391,7351 12450,7259 12510,7166 12569,7070 12628,6973 12688,6874 12747,6774 12806,6672 12865,6570 12925,6466 12984,6361 13043,6256 13102,6150 13162,6044 13221,5938 13280,5831 13340,5723"/>
 <text class="TextShape"><tspan class="TextParagraph" font-family="Arial, sans-serif" font-size="353px" font-weight="400"><tspan class="TextPosition" x="2579" y="10926"><tspan fill="rgb(60,60,60)" stroke="none">5</tspan></tspan></tspan></text>
 <text class="TextShape"><tspan class="TextParagraph" font-family="Arial, sans-serif" font-size="353px" font-weight="400"><tspan class="TextPosition" x="3672" y="10926"><tspan fill="rgb(60,60,60)" stroke="none">10</tspan></tspan></tspan></text>
 <text class="TextShape"><tspan class="TextParagraph" font-family="Arial, sans-serif" font-size="353px" font-weight="400"><tspan class="TextPosition" x="4857" y="10926"><tspan fill="rgb(60,60,60)" stroke="none">15</tspan></tspan></tspan></text>
 <text class="TextShape"><tspan class="TextParagraph" font-family="Arial, sans-serif" font-size="353px" font-weight="400"><tspan class="TextPosition" x="6043" y="10926"><tspan fill="rgb(60,60,60)" stroke="none">20</tspan></tspan></tspan></text>
 <text class="TextShape"><tspan class="TextParagraph" font-family="Arial, sans-serif" font-size="353px" font-weight="400"><tspan class="TextPosition" x="7228" y="10926"><tspan fill="rgb(60,60,60)" stroke="none">25</tspan></tspan></tspan></text>
 <text class="TextShape"><tspan class="TextParagraph" font-family="Arial, sans-serif" font-size="353px" font-weight="400"><tspan class="TextPosition" x="8414" y="10926"><tspan fill="rgb(60,60,60)" stroke="none">30</tspan></tspan></tspan></text>
 <text class="TextShape"><tspan class="TextParagraph" font-family="Arial, sans-serif" font-size="353px" font-weight="400"><tspan class="TextPosition" x="9599" y="10926"><tspan fill="rgb(60,60,60)" stroke="none">35</tspan></tspan></tspan></text>
 <text class="TextShape"><tspan class="TextParagraph" font-family="Arial, sans-serif" font-size="353px" font-weight="400"><tspan class="TextPosition" x="10785" y="10926"><tspan fill="rgb(60,60,60)" stroke="none">40</tspan></tspan></tspan></text>
 <text class="TextShape"><tspan class="TextParagraph" font-family="Arial, sans-serif" font-size="353px" font-weight="400"><tspan class="TextPosition" x="11970" y="10926"><tspan fill="rgb(60,60,60)" stroke="none">45</tspan></tspan></tspan></text>
 <text class="TextShape"><tspan class="TextParagraph" font-family="Arial, sans-serif" font-size="353px" font-weight="400"><tspan class="TextPosition" x="13156" y="10926"><tspan fill="rgb(60,60,60)" stroke="none">50</tspan></tspan></tspan></text>
 <text class="TextShape"><tspan class="TextParagraph" font-family="Arial, sans-serif" font-size="353px" font-weight="400"><tspan class="TextPosition" x="2237" y="10479"><tspan fill="rgb(60,60,60)" stroke="none">0</tspan></tspan></tspan></text>
 <text class="TextShape"><tspan class="TextParagraph" font-family="Arial, sans-serif" font-size="353px" font-weight="400"><tspan class="TextPosition" x="1311" y="9494"><tspan fill="rgb(60,60,60)" stroke="none">200000</tspan></tspan></tspan></text>
 <text class="TextShape"><tspan class="TextParagraph" font-family="Arial, sans-serif" font-size="353px" font-weight="400"><tspan class="TextPosition" x="1311" y="8509"><tspan fill="rgb(60,60,60)" stroke="none">400000</tspan></tspan></tspan></text>
 <text class="TextShape"><tspan class="TextParagraph" font-family="Arial, sans-serif" font-size="353px" font-weight="400"><tspan class="TextPosition" x="1311" y="7524"><tspan fill="rgb(60,60,60)" stroke="none">600000</tspan></tspan></tspan></text>
 <text class="TextShape"><tspan class="TextParagraph" font-family="Arial, sans-serif" font-size="353px" font-weight="400"><tspan class="TextPosition" x="1311" y="6539"><tspan fill="rgb(60,60,60)" stroke="none">800000</tspan></tspan></tspan></text>
 <text class="TextShape"><tspan class="TextParagraph" font-family="Arial, sans-serif" font-size="353px" font-weight="400"><tspan class="TextPosition" x="1126" y="5554"><tspan fill="rgb(60,60,60)" stroke="none">1000000</tspan></tspan></tspan></text>
 <text class="TextShape"><tspan class="TextParagraph" font-family="Arial, sans-serif" font-size="353px" font-weight="400"><tspan class="TextPosition" x="1126" y="4569"><tspan fill="rgb(60,60,60)" stroke="none">1200000</tspan></tspan></tspan></text>
 <text class="TextShape"><tspan class="TextParagraph" font-family="Arial, sans-serif" font-size="353px" font-weight="400"><tspan class="TextPosition" x="1126" y="3584"><tspan fill="rgb(60,60,60)" stroke="none">1400000</tspan></tspan></tspan></text>
 <text class="TextShape"><tspan class="TextParagraph" font-family="Arial, sans-serif" font-size="353px" font-weight="400"><tspan class="TextPosition" x="1126" y="2599"><tspan fill="rgb(60,60,60)" stroke="none">1600000</tspan></tspan></tspan></text>
 <text class="TextShape"><tspan class="TextParagraph" font-family="Arial, sans-serif" font-size="353px" font-weight="400"><tspan class="TextPosition" x="1126" y="1615"><tspan fill="rgb(60,60,60)" stroke="none">1800000</tspan></tspan></tspan></text>
 <path fill="none" stroke="rgb(0,69,134)" stroke-width="105" stroke-linejoin="round" d="M 13623,2698 L 14423,2698"/>
 <path fill="none" stroke="rgb(255,66,14)" stroke-width="105" stroke-linejoin="round" d="M 13623,4749 L 14423,4749"/>
 <path fill="none" stroke="rgb(255,211,32)" stroke-width="105" stroke-linejoin="round" d="M 13623,6799 L 14423,6799"/>
 <path fill="none" stroke="rgb(87,157,28)" stroke-width="105" stroke-linejoin="round" d="M 13623,8850 L 14423,8850"/>
 <text class="TextShape"><tspan class="TextParagraph" font-family="Arial, sans-serif" font-size="353px" font-weight="400"><tspan class="TextPosition" x="14523" y="2841"><tspan fill="rgb(60,60,60)" stroke="none">Implementacja </tspan></tspan><tspan class="TextPosition" x="14523" y="3238"><tspan fill="rgb(60,60,60)" stroke="none">prosta, </tspan></tspan><tspan class="TextPosition" x="14523" y="3635"><tspan fill="rgb(60,60,60)" stroke="none">metoda 2</tspan></tspan></tspan></text>
 <text class="TextShape"><tspan class="TextParagraph" font-family="Arial, sans-serif" font-size="353px" font-weight="400"><tspan class="TextPosition" x="14523" y="4892"><tspan fill="rgb(60,60,60)" stroke="none">Implementacja </tspan></tspan><tspan class="TextPosition" x="14523" y="5289"><tspan fill="rgb(60,60,60)" stroke="none">prosta, </tspan></tspan><tspan class="TextPosition" x="14523" y="5686"><tspan fill="rgb(60,60,60)" stroke="none">metoda 1</tspan></tspan></tspan></text>
 <text class="TextShape"><tspan class="TextParagraph" font-family="Arial, sans-serif" font-size="353px" font-weight="400"><tspan class="TextPosition" x="14523" y="6942"><tspan fill="rgb(60,60,60)" stroke="none">Implementacja </tspan></tspan><tspan class="TextPosition" x="14523" y="7339"><tspan fill="rgb(60,60,60)" stroke="none">macierzowa, </tspan></tspan><tspan class="TextPosition" x="14523" y="7736"><tspan fill="rgb(60,60,60)" stroke="none">metoda 2</tspan></tspan></tspan></text>
 <text class="TextShape"><tspan class="TextParagraph" font-family="Arial, sans-serif" font-size="353px" font-weight="400"><tspan class="TextPosition" x="14523" y="8993"><tspan fill="rgb(60,60,60)" stroke="none">Implementacja </tspan></tspan><tspan class="TextPosition" x="14523" y="9390"><tspan fill="rgb(60,60,60)" stroke="none">macierzowa, </tspan></tspan><tspan class="TextPosition" x="14523" y="9787"><tspan fill="rgb(60,60,60)" stroke="none">metoda 1</tspan></tspan></tspan></text>
 <text class="TextShape"><tspan class="TextParagraph" font-family="Times New Roman, serif" font-size="423px" font-weight="400"><tspan class="TextPosition" x="1178" y="754"><tspan fill="rgb(0,0,0)" stroke="none">t[ms]</tspan></tspan></tspan></text>
 <text class="TextShape"><tspan class="TextParagraph" font-family="Times New Roman, serif" font-size="423px" font-weight="400"><tspan class="TextPosition" x="13520" y="10465"><tspan fill="rgb(0,0,0)" stroke="none">N</tspan></tspan></tspan></text>
</svg>