<?xml version="1.0" encoding="UTF-8"?>
<!DOCTYPE svg PUBLIC "-//W3C//DTD SVG 1.1//EN" "http://www.w3.org/Graphics/SVG/1.1/DTD/svg11.dtd">
<svg width="172mm" height="100mm" viewBox="0 0 17200 10000" version="1.1" baseProfile="tiny" xmlns="http://www.w3.org/2000/svg" stroke-width="28.222" stroke-linejoin="round" xml:space="preserve">
 <path fill="rgb(255,255,255)" stroke="none" d="M 8577,10013 L 0,10013 0,0 17154,0 17154,10013 8577,10013 Z"/>
 <path fill="none" stroke="rgb(179,179,179)" stroke-linejoin="round" d="M 7757,9164 L 2075,9164 2075,1240 13439,1240 13439,9164 7757,9164 Z"/>
 <path fill="none" stroke="rgb(179,179,179)" stroke-linejoin="round" d="M 13439,9163 L 2075,9163"/>
 <path fill="none" stroke="rgb(179,179,179)" stroke-linejoin="round" d="M 13439,7842 L 2075,7842"/>
 <path fill="none" stroke="rgb(179,179,179)" stroke-linejoin="round" d="M 13439,6521 L 2075,6521"/>
 <path fill="none" stroke="rgb(179,179,179)" stroke-linejoin="round" d="M 13439,5200 L 2075,5200"/>
 <path fill="none" stroke="rgb(179,179,179)" stroke-linejoin="round" d="M 13439,3880 L 2075,3880"/>
 <path fill="none" stroke="rgb(179,179,179)" stroke-linejoin="round" d="M 13439,2559 L 2075,2559"/>
 <path fill="none" stroke="rgb(179,179,179)" stroke-linejoin="round" d="M 13439,1239 L 2075,1239"/>
 <path fill="none" stroke="rgb(179,179,179)" stroke-linejoin="round" d="M 2075,9313 L 2075,9163"/>
 <path fill="none" stroke="rgb(179,179,179)" stroke-linejoin="round" d="M 2075,9313 L 2075,9163"/>
 <path fill="none" stroke="rgb(179,179,179)" stroke-linejoin="round" d="M 3211,9313 L 3211,9163"/>
 <path fill="none" stroke="rgb(179,179,179)" stroke-linejoin="round" d="M 3211,9313 L 3211,9163"/>
 <path fill="none" stroke="rgb(179,179,179)" stroke-linejoin="round" d="M 4348,9313 L 4348,9163"/>
 <path fill="none" stroke="rgb(179,179,179)" stroke-linejoin="round" d="M 4348,9313 L 4348,9163"/>
 <path fill="none" stroke="rgb(179,179,179)" stroke-linejoin="round" d="M 5484,9313 L 5484,9163"/>
 <path fill="none" stroke="rgb(179,179,179)" stroke-linejoin="round" d="M 5484,9313 L 5484,9163"/>
 <path fill="none" stroke="rgb(179,179,179)" stroke-linejoin="round" d="M 6621,9313 L 6621,9163"/>
 <path fill="none" stroke="rgb(179,179,179)" stroke-linejoin="round" d="M 6621,9313 L 6621,9163"/>
 <path fill="none" stroke="rgb(179,179,179)" stroke-linejoin="round" d="M 7757,9313 L 7757,9163"/>
 <path fill="none" stroke="rgb(179,179,179)" stroke-linejoin="round" d="M 7757,9313 L 7757,9163"/>
 <path fill="none" stroke="rgb(179,179,179)" stroke-linejoin="round" d="M 8893,9313 L 8893,9163"/>
 <path fill="none" stroke="rgb(179,179,179)" stroke-linejoin="round" d="M 8893,9313 L 8893,9163"/>
 <path fill="none" stroke="rgb(179,179,179)" stroke-linejoin="round" d="M 10029,9313 L 10029,9163"/>
 <path fill="none" stroke="rgb(179,179,179)" stroke-linejoin="round" d="M 10029,9313 L 10029,9163"/>
 <path fill="none" stroke="rgb(179,179,179)" stroke-linejoin="round" d="M 11166,9313 L 11166,9163"/>
 <path fill="none" stroke="rgb(179,179,179)" stroke-linejoin="round" d="M 11166,9313 L 11166,9163"/>
 <path fill="none" stroke="rgb(179,179,179)" stroke-linejoin="round" d="M 12302,9313 L 12302,9163"/>
 <path fill="none" stroke="rgb(179,179,179)" stroke-linejoin="round" d="M 12302,9313 L 12302,9163"/>
 <path fill="none" stroke="rgb(179,179,179)" stroke-linejoin="round" d="M 13439,9313 L 13439,9163"/>
 <path fill="none" stroke="rgb(179,179,179)" stroke-linejoin="round" d="M 13439,9313 L 13439,9163"/>
 <path fill="none" stroke="rgb(179,179,179)" stroke-linejoin="round" d="M 2075,9163 L 13439,9163"/>
 <path fill="none" stroke="rgb(179,179,179)" stroke-linejoin="round" d="M 1925,9163 L 2075,9163"/>
 <path fill="none" stroke="rgb(179,179,179)" stroke-linejoin="round" d="M 1925,9163 L 2075,9163"/>
 <path fill="none" stroke="rgb(179,179,179)" stroke-linejoin="round" d="M 1925,7842 L 2075,7842"/>
 <path fill="none" stroke="rgb(179,179,179)" stroke-linejoin="round" d="M 1925,7842 L 2075,7842"/>
 <path fill="none" stroke="rgb(179,179,179)" stroke-linejoin="round" d="M 1925,6521 L 2075,6521"/>
 <path fill="none" stroke="rgb(179,179,179)" stroke-linejoin="round" d="M 1925,6521 L 2075,6521"/>
 <path fill="none" stroke="rgb(179,179,179)" stroke-linejoin="round" d="M 1925,5200 L 2075,5200"/>
 <path fill="none" stroke="rgb(179,179,179)" stroke-linejoin="round" d="M 1925,5200 L 2075,5200"/>
 <path fill="none" stroke="rgb(179,179,179)" stroke-linejoin="round" d="M 1925,3880 L 2075,3880"/>
 <path fill="none" stroke="rgb(179,179,179)" stroke-linejoin="round" d="M 1925,3880 L 2075,3880"/>
 <path fill="none" stroke="rgb(179,179,179)" stroke-linejoin="round" d="M 1925,2559 L 2075,2559"/>
 <path fill="none" stroke="rgb(179,179,179)" stroke-linejoin="round" d="M 1925,2559 L 2075,2559"/>
 <path fill="none" stroke="rgb(179,179,179)" stroke-linejoin="round" d="M 1925,1239 L 2075,1239"/>
 <path fill="none" stroke="rgb(179,179,179)" stroke-linejoin="round" d="M 1925,1239 L 2075,1239"/>
 <path fill="none" stroke="rgb(179,179,179)" stroke-linejoin="round" d="M 2075,9163 L 2075,1239"/>
 <path fill="none" stroke="rgb(255,66,14)" stroke-width="80" stroke-linejoin="round" d=""/>
 <path fill="none" stroke="rgb(255,66,14)" stroke-width="80" stroke-linejoin="round" d="M 2639,9163 L 2643,9162 2688,9162 2735,9162 2783,9162 2834,9162 2887,9162 2941,9162 2996,9162 3053,9162 3111,9162 3170,9162 3230,9162 3290,9162 3351,9162 3412,9162 3473,9162 3535,9162 3597,9162 3658,9162 3719,9162 3779,9162 3839,9162 3898,9162 3957,9162 4015,9162 4073,9162 4130,9162 4187,9162 4244,9162 4300,9162 4356,9162 4412,9162 4468,9162 4524,9162 4580,9162 4635,9162 4691,9162 4747,9161 4803,9161 4859,9161 4916,9160 4973,9160 5030,9160 5087,9159 5144,9159 5202,9158 5259,9157 5317,9157 5375,9156 5432,9156 5490,9155 5547,9154 5605,9154 5662,9153 5719,9152 5775,9152 5831,9151 5887,9150 5943,9150 5998,9149 6052,9148 6106,9148 6160,9147 6213,9147 6266,9146 6320,9145 6373,9144 6426,9143 6480,9142 6534,9140 6588,9139 6644,9137 6699,9134 6756,9132 6814,9129 6873,9125 6933,9121 6995,9117 7058,9112 7122,9107 7189,9101 7257,9095 7327,9088 7398,9080 7472,9072 7547,9063 7624,9054 7703,9043 7784,9032 7867,9020 7951,9007 8037,8993 8125,8979 8215,8963 8306,8947 8400,8929 8495,8911 8591,8891 8690,8870 8790,8849 8893,8826 8997,8801 9102,8775 9210,8747 9318,8715 9429,8680 9540,8641 9652,8596 9766,8546 9880,8490 9995,8427 10111,8356 10228,8278 10345,8190 10462,8094 10579,7987 10697,7870 10814,7742 10931,7601 11049,7448 11166,7283 11282,7103 11398,6911 11513,6706 11629,6490 11744,6262 11858,6024 11972,5777 12086,5521 12200,5256 12313,4985 12426,4706 12539,4421 12652,4131 12765,3835 12877,3536 12990,3233 13102,2927 13214,2619 13326,2310 13439,2000"/>
 <path fill="none" stroke="rgb(0,69,134)" stroke-width="80" stroke-linejoin="round" d="M 2075,9163 L 2095,9162 2116,9162 2137,9162 2159,9162 2181,9162 2203,9162 2226,9162 2250,9162 2275,9162 2301,9162 2328,9162 2357,9162 2386,9162 2418,9162 2451,9162 2485,9162 2521,9162 2560,9162 2600,9162 2643,9162 2688,9162 2735,9162 2783,9162 2834,9162 2887,9162 2941,9162 2996,9162 3053,9162 3111,9162 3170,9162 3230,9162 3290,9162 3351,9162 3412,9162 3473,9162 3535,9162 3597,9162 3658,9162 3719,9162 3779,9162 3839,9162 3898,9162 3957,9162 4015,9162 4073,9162 4130,9162 4187,9162 4244,9162 4300,9162 4356,9162 4412,9162 4468,9162 4524,9162 4580,9162 4635,9162 4691,9162 4747,9162 4803,9162 4859,9162 4916,9162 4973,9162 5030,9162 5087,9162 5144,9162 5202,9162 5259,9162 5317,9162 5375,9162 5432,9162 5490,9162 5547,9162 5605,9161 5662,9161 5719,9161 5775,9161 5831,9161 5887,9161 5943,9161 5998,9161 6052,9161 6106,9161 6160,9161 6213,9161 6266,9160 6320,9160 6373,9160 6426,9160 6480,9160 6534,9160 6588,9160 6644,9159 6699,9159 6756,9159 6814,9159 6873,9158 6933,9158 6995,9158 7058,9158 7122,9157 7189,9157 7257,9156 7327,9156 7398,9155 7472,9155 7547,9154 7624,9154 7703,9153 7784,9152 7867,9152 7951,9151 8037,9150 8125,9149 8215,9148 8306,9147 8400,9146 8495,9145 8591,9144 8690,9142 8790,9141 8893,9140 8997,9138 9102,9136 9210,9135 9318,9133 9429,9131 9540,9128 9652,9126 9766,9123 9880,9120 9995,9117 10111,9113 10228,9109 10345,9105 10462,9100 10579,9095 10697,9089 10814,9083 10931,9076 11049,9068 11166,9061 11282,9052 11398,9043 11513,9033 11629,9023 11744,9013 11858,9002 11972,8990 12086,8979 12200,8966 12313,8954 12426,8941 12539,8928 12652,8915 12765,8901 12877,8887 12990,8874 13102,8860 13214,8846 13326,8831 13439,8817"/>
 <text class="TextShape"><tspan class="TextParagraph" font-family="Liberation Sans, sans-serif" font-size="353px" font-weight="400"><tspan class="TextPosition" x="1982" y="9731"><tspan fill="rgb(0,0,0)" stroke="none">0</tspan></tspan></tspan></text>
 <text class="TextShape"><tspan class="TextParagraph" font-family="Liberation Sans, sans-serif" font-size="353px" font-weight="400"><tspan class="TextPosition" x="3026" y="9731"><tspan fill="rgb(0,0,0)" stroke="none">10</tspan></tspan></tspan></text>
 <text class="TextShape"><tspan class="TextParagraph" font-family="Liberation Sans, sans-serif" font-size="353px" font-weight="400"><tspan class="TextPosition" x="4163" y="9731"><tspan fill="rgb(0,0,0)" stroke="none">20</tspan></tspan></tspan></text>
 <text class="TextShape"><tspan class="TextParagraph" font-family="Liberation Sans, sans-serif" font-size="353px" font-weight="400"><tspan class="TextPosition" x="5299" y="9731"><tspan fill="rgb(0,0,0)" stroke="none">30</tspan></tspan></tspan></text>
 <text class="TextShape"><tspan class="TextParagraph" font-family="Liberation Sans, sans-serif" font-size="353px" font-weight="400"><tspan class="TextPosition" x="6436" y="9731"><tspan fill="rgb(0,0,0)" stroke="none">40</tspan></tspan></tspan></text>
 <text class="TextShape"><tspan class="TextParagraph" font-family="Liberation Sans, sans-serif" font-size="353px" font-weight="400"><tspan class="TextPosition" x="7572" y="9731"><tspan fill="rgb(0,0,0)" stroke="none">50</tspan></tspan></tspan></text>
 <text class="TextShape"><tspan class="TextParagraph" font-family="Liberation Sans, sans-serif" font-size="353px" font-weight="400"><tspan class="TextPosition" x="8709" y="9731"><tspan fill="rgb(0,0,0)" stroke="none">60</tspan></tspan></tspan></text>
 <text class="TextShape"><tspan class="TextParagraph" font-family="Liberation Sans, sans-serif" font-size="353px" font-weight="400"><tspan class="TextPosition" x="9845" y="9731"><tspan fill="rgb(0,0,0)" stroke="none">70</tspan></tspan></tspan></text>
 <text class="TextShape"><tspan class="TextParagraph" font-family="Liberation Sans, sans-serif" font-size="353px" font-weight="400"><tspan class="TextPosition" x="10982" y="9731"><tspan fill="rgb(0,0,0)" stroke="none">80</tspan></tspan></tspan></text>
 <text class="TextShape"><tspan class="TextParagraph" font-family="Liberation Sans, sans-serif" font-size="353px" font-weight="400"><tspan class="TextPosition" x="12118" y="9731"><tspan fill="rgb(0,0,0)" stroke="none">90</tspan></tspan></tspan></text>
 <text class="TextShape"><tspan class="TextParagraph" font-family="Liberation Sans, sans-serif" font-size="353px" font-weight="400"><tspan class="TextPosition" x="13162" y="9731"><tspan fill="rgb(0,0,0)" stroke="none">100</tspan></tspan></tspan></text>
 <text class="TextShape"><tspan class="TextParagraph" font-family="Liberation Sans, sans-serif" font-size="353px" font-weight="400"><tspan class="TextPosition" x="1640" y="9284"><tspan fill="rgb(0,0,0)" stroke="none">0</tspan></tspan></tspan></text>
 <text class="TextShape"><tspan class="TextParagraph" font-family="Liberation Sans, sans-serif" font-size="353px" font-weight="400"><tspan class="TextPosition" x="343" y="7963"><tspan fill="rgb(0,0,0)" stroke="none">10000000</tspan></tspan></tspan></text>
 <text class="TextShape"><tspan class="TextParagraph" font-family="Liberation Sans, sans-serif" font-size="353px" font-weight="400"><tspan class="TextPosition" x="343" y="6642"><tspan fill="rgb(0,0,0)" stroke="none">20000000</tspan></tspan></tspan></text>
 <text class="TextShape"><tspan class="TextParagraph" font-family="Liberation Sans, sans-serif" font-size="353px" font-weight="400"><tspan class="TextPosition" x="343" y="5321"><tspan fill="rgb(0,0,0)" stroke="none">30000000</tspan></tspan></tspan></text>
 <text class="TextShape"><tspan class="TextParagraph" font-family="Liberation Sans, sans-serif" font-size="353px" font-weight="400"><tspan class="TextPosition" x="343" y="4000"><tspan fill="rgb(0,0,0)" stroke="none">40000000</tspan></tspan></tspan></text>
 <text class="TextShape"><tspan class="TextParagraph" font-family="Liberation Sans, sans-serif" font-size="353px" font-weight="400"><tspan class="TextPosition" x="343" y="2679"><tspan fill="rgb(0,0,0)" stroke="none">50000000</tspan></tspan></tspan></text>
 <text class="TextShape"><tspan class="TextParagraph" font-family="Liberation Sans, sans-serif" font-size="353px" font-weight="400"><tspan class="TextPosition" x="343" y="1359"><tspan fill="rgb(0,0,0)" stroke="none">60000000</tspan></tspan></tspan></text>
 <path fill="none" stroke="rgb(0,69,134)" stroke-width="80" stroke-linejoin="round" d="M 14180,4757 L 14980,4757"/>
 <path fill="none" stroke="rgb(255,66,14)" stroke-width="80" stroke-linejoin="round" d="M 14180,5254 L 14980,5254"/>
 <text class="TextShape"><tspan class="TextParagraph" font-family="Liberation Sans, sans-serif" font-size="353px" font-weight="400"><tspan class="TextPosition" x="15080" y="4877"><tspan fill="rgb(0,0,0)" stroke="none">Równoległy</tspan></tspan></tspan></text>
 <text class="TextShape"><tspan class="TextParagraph" font-family="Liberation Sans, sans-serif" font-size="353px" font-weight="400"><tspan class="TextPosition" x="15080" y="5374"><tspan fill="rgb(0,0,0)" stroke="none">Szeregowy</tspan></tspan></tspan></text>
 <text class="TextShape"><tspan class="TextParagraph" font-family="Times New Roman, serif" font-size="423px" font-weight="400"><tspan class="TextPosition" x="933" y="608"><tspan fill="rgb(0,0,0)" stroke="none">t[ms]</tspan></tspan></tspan></text>
 <text class="TextShape"><tspan class="TextParagraph" font-family="Times New Roman, serif" font-size="423px" font-weight="400"><tspan class="TextPosition" x="13883" y="9217"><tspan fill="rgb(0,0,0)" stroke="none">N</tspan></tspan></tspan></text>
</svg>