<?xml version="1.0" encoding="UTF-8"?>
<!DOCTYPE svg PUBLIC "-//W3C//DTD SVG 1.1//EN" "http://www.w3.org/Graphics/SVG/1.1/DTD/svg11.dtd">
<svg width="190mm" height="120mm" viewBox="0 0 19000 12000" version="1.1" baseProfile="tiny" xmlns="http://www.w3.org/2000/svg" stroke-width="28.222" stroke-linejoin="round" xml:space="preserve">
 <path fill="rgb(114,159,207)" stroke="none" d="M 0,0 L 18957,0 18957,12026 0,12026 0,0 Z"/>
 <path fill="rgb(255,255,255)" stroke="none" d="M 9479,12026 L 0,12026 0,0 18957,0 18957,12026 9479,12026 Z"/>
 <path fill="none" stroke="rgb(179,179,179)" stroke-linejoin="round" d="M 8450,10727 L 2300,10727 2300,1391 14600,1391 14600,10727 8450,10727 Z"/>
 <path fill="none" stroke="rgb(179,179,179)" stroke-linejoin="round" d="M 14600,10726 L 2300,10726"/>
 <path fill="none" stroke="rgb(179,179,179)" stroke-linejoin="round" d="M 14600,9688 L 2300,9688"/>
 <path fill="none" stroke="rgb(179,179,179)" stroke-linejoin="round" d="M 14600,8651 L 2300,8651"/>
 <path fill="none" stroke="rgb(179,179,179)" stroke-linejoin="round" d="M 14600,7613 L 2300,7613"/>
 <path fill="none" stroke="rgb(179,179,179)" stroke-linejoin="round" d="M 14600,6576 L 2300,6576"/>
 <path fill="none" stroke="rgb(179,179,179)" stroke-linejoin="round" d="M 14600,5539 L 2300,5539"/>
 <path fill="none" stroke="rgb(179,179,179)" stroke-linejoin="round" d="M 14600,4502 L 2300,4502"/>
 <path fill="none" stroke="rgb(179,179,179)" stroke-linejoin="round" d="M 14600,3464 L 2300,3464"/>
 <path fill="none" stroke="rgb(179,179,179)" stroke-linejoin="round" d="M 14600,2427 L 2300,2427"/>
 <path fill="none" stroke="rgb(179,179,179)" stroke-linejoin="round" d="M 14600,1390 L 2300,1390"/>
 <path fill="none" stroke="rgb(179,179,179)" stroke-linejoin="round" d="M 2300,10876 L 2300,10726"/>
 <path fill="none" stroke="rgb(179,179,179)" stroke-linejoin="round" d="M 3666,10876 L 3666,10726"/>
 <path fill="none" stroke="rgb(179,179,179)" stroke-linejoin="round" d="M 5033,10876 L 5033,10726"/>
 <path fill="none" stroke="rgb(179,179,179)" stroke-linejoin="round" d="M 6400,10876 L 6400,10726"/>
 <path fill="none" stroke="rgb(179,179,179)" stroke-linejoin="round" d="M 7767,10876 L 7767,10726"/>
 <path fill="none" stroke="rgb(179,179,179)" stroke-linejoin="round" d="M 9133,10876 L 9133,10726"/>
 <path fill="none" stroke="rgb(179,179,179)" stroke-linejoin="round" d="M 10499,10876 L 10499,10726"/>
 <path fill="none" stroke="rgb(179,179,179)" stroke-linejoin="round" d="M 11866,10876 L 11866,10726"/>
 <path fill="none" stroke="rgb(179,179,179)" stroke-linejoin="round" d="M 13233,10876 L 13233,10726"/>
 <path fill="none" stroke="rgb(179,179,179)" stroke-linejoin="round" d="M 14600,10876 L 14600,10726"/>
 <path fill="none" stroke="rgb(179,179,179)" stroke-linejoin="round" d="M 2300,10726 L 14600,10726"/>
 <path fill="none" stroke="rgb(179,179,179)" stroke-linejoin="round" d="M 2150,10726 L 2300,10726"/>
 <path fill="none" stroke="rgb(179,179,179)" stroke-linejoin="round" d="M 2150,9688 L 2300,9688"/>
 <path fill="none" stroke="rgb(179,179,179)" stroke-linejoin="round" d="M 2150,8651 L 2300,8651"/>
 <path fill="none" stroke="rgb(179,179,179)" stroke-linejoin="round" d="M 2150,7613 L 2300,7613"/>
 <path fill="none" stroke="rgb(179,179,179)" stroke-linejoin="round" d="M 2150,6576 L 2300,6576"/>
 <path fill="none" stroke="rgb(179,179,179)" stroke-linejoin="round" d="M 2150,5539 L 2300,5539"/>
 <path fill="none" stroke="rgb(179,179,179)" stroke-linejoin="round" d="M 2150,4502 L 2300,4502"/>
 <path fill="none" stroke="rgb(179,179,179)" stroke-linejoin="round" d="M 2150,3464 L 2300,3464"/>
 <path fill="none" stroke="rgb(179,179,179)" stroke-linejoin="round" d="M 2150,2427 L 2300,2427"/>
 <path fill="none" stroke="rgb(179,179,179)" stroke-linejoin="round" d="M 2150,1390 L 2300,1390"/>
 <path fill="none" stroke="rgb(179,179,179)" stroke-linejoin="round" d="M 2300,10726 L 2300,1390"/>
 <path fill="none" stroke="rgb(0,69,134)" stroke-width="105" stroke-linejoin="round" d="M 2300,10725 L 2368,10725 2436,10725 2505,10725 2573,10725 2641,10725 2710,10725 2778,10725 2846,10725 2915,10725 2983,10725 3051,10725 3120,10725 3188,10725 3256,10725 3325,10725 3393,10725 3461,10725 3530,10725 3598,10724 3666,10724 3735,10724 3803,10724 3871,10724 3940,10724 4008,10723 4076,10723 4145,10723 4213,10723 4281,10722 4350,10722 4418,10721 4486,10721 4555,10720 4623,10720 4691,10719 4760,10719 4828,10718 4896,10717 4965,10716 5033,10715 5101,10715 5170,10714 5238,10712 5306,10711 5375,10710 5443,10709 5511,10707 5580,10706 5648,10704 5716,10702 5785,10700 5853,10698 5921,10696 5990,10694 6058,10691 6126,10689 6195,10686 6263,10683 6331,10680 6400,10677 6468,10673 6537,10669 6605,10665 6673,10661 6742,10657 6810,10652 6878,10647 6947,10642 7015,10637 7083,10631 7152,10625 7220,10619 7288,10613 7357,10606 7425,10598 7493,10591 7562,10583 7630,10575 7698,10566 7767,10557 7835,10548 7903,10538 7972,10528 8040,10517 8108,10506 8177,10495 8245,10483 8313,10470 8382,10457 8450,10443 8518,10429 8587,10414 8655,10398 8723,10382 8792,10365 8860,10348 8928,10330 8997,10311 9065,10291 9133,10271 9202,10249 9270,10227 9338,10204 9407,10181 9475,10156 9542,10130 9611,10104 9679,10076 9747,10047 9816,10017 9884,9986 9952,9954 10021,9920 10089,9885 10157,9849 10226,9811 10294,9772 10362,9732 10431,9690 10499,9647 10568,9602 10636,9555 10704,9507 10773,9458 10841,9406 10909,9353 10978,9299 11046,9242 11114,9184 11183,9124 11251,9063 11319,8999 11388,8934 11456,8867 11524,8798 11593,8727 11661,8654 11729,8580 11798,8503 11866,8424 11934,8344 12003,8261 12071,8176 12139,8088 12208,7998 12276,7905 12344,7809 12413,7710 12481,7608 12549,7502 12618,7393 12686,7280 12754,7163 12823,7043 12891,6918 12959,6788 13028,6655 13096,6516 13164,6373 13233,6225 13301,6072 13369,5914 13438,5752 13506,5585 13574,5414 13643,5239 13711,5060 13779,4878 13848,4693 13916,4506 13984,4315 14053,4123 14121,3928 14189,3732 14258,3534 14326,3334 14394,3134 14463,2933 14531,2732 14600,2530"/>
 <path fill="none" stroke="rgb(255,66,14)" stroke-width="105" stroke-linejoin="round" d="M 2300,10725 L 2368,10725 2436,10725 2505,10725 2573,10725 2641,10725 2710,10725 2778,10725 2846,10725 2915,10725 2983,10725 3051,10725 3120,10725 3188,10725 3256,10725 3325,10725 3393,10725 3461,10725 3530,10725 3598,10725 3666,10725 3735,10725 3803,10725 3871,10725 3940,10725 4008,10725 4076,10725 4145,10724 4213,10724 4281,10724 4350,10724 4418,10724 4486,10724 4555,10724 4623,10724 4691,10724 4760,10724 4828,10723 4896,10723 4965,10723 5033,10723 5101,10723 5170,10723 5238,10722 5306,10722 5375,10722 5443,10722 5511,10722 5580,10721 5648,10721 5716,10721 5785,10721 5853,10720 5921,10720 5990,10720 6058,10719 6126,10719 6195,10719 6263,10718 6331,10718 6400,10718 6468,10717 6537,10717 6605,10716 6673,10716 6742,10716 6810,10715 6878,10715 6947,10714 7015,10714 7083,10713 7152,10712 7220,10712 7288,10711 7357,10711 7425,10710 7493,10709 7562,10709 7630,10708 7698,10707 7767,10706 7835,10705 7903,10705 7972,10704 8040,10703 8108,10702 8177,10701 8245,10700 8313,10699 8382,10698 8450,10696 8518,10695 8587,10694 8655,10693 8723,10692 8792,10690 8860,10689 8928,10688 8997,10686 9065,10685 9133,10683 9202,10682 9270,10680 9338,10679 9407,10677 9475,10676 9542,10674 9611,10672 9679,10671 9747,10669 9816,10667 9884,10665 9952,10663 10021,10661 10089,10659 10157,10657 10226,10655 10294,10653 10362,10650 10431,10648 10499,10646 10568,10643 10636,10641 10704,10638 10773,10635 10841,10633 10909,10630 10978,10627 11046,10624 11114,10621 11183,10618 11251,10615 11319,10612 11388,10608 11456,10605 11524,10602 11593,10598 11661,10594 11729,10591 11798,10587 11866,10583 11934,10579 12003,10575 12071,10571 12139,10567 12208,10563 12276,10559 12344,10554 12413,10550 12481,10545 12549,10540 12618,10535 12686,10530 12754,10525 12823,10519 12891,10514 12959,10508 13028,10503 13096,10497 13164,10490 13233,10484 13301,10478 13369,10471 13438,10464 13506,10457 13574,10450 13643,10443 13711,10436 13779,10428 13848,10421 13916,10413 13984,10405 14053,10397 14121,10389 14189,10382 14258,10374 14326,10365 14394,10357 14463,10349 14531,10341 14600,10333"/>
 <path fill="none" stroke="rgb(255,211,32)" stroke-width="105" stroke-linejoin="round" d="M 2300,10725 L 2368,10725 2436,10725 2505,10725 2573,10725 2641,10725 2710,10725 2778,10725 2846,10725 2915,10725 2983,10725 3051,10725 3120,10725 3188,10725 3256,10725 3325,10725 3393,10725 3461,10725 3530,10725 3598,10724 3666,10724 3735,10724 3803,10724 3871,10724 3940,10724 4008,10723 4076,10723 4145,10723 4213,10723 4281,10722 4350,10722 4418,10721 4486,10721 4555,10721 4623,10720 4691,10719 4760,10719 4828,10718 4896,10717 4965,10716 5033,10715 5101,10715 5170,10713 5238,10712 5306,10711 5375,10710 5443,10708 5511,10707 5580,10705 5648,10704 5716,10702 5785,10700 5853,10698 5921,10696 5990,10693 6058,10691 6126,10688 6195,10685 6263,10682 6331,10679 6400,10676 6468,10672 6537,10669 6605,10665 6673,10661 6742,10656 6810,10652 6878,10647 6947,10642 7015,10637 7083,10631 7152,10625 7220,10619 7288,10612 7357,10605 7425,10598 7493,10590 7562,10582 7630,10573 7698,10565 7767,10555 7835,10546 7903,10535 7972,10525 8040,10514 8108,10502 8177,10490 8245,10477 8313,10464 8382,10450 8450,10436 8518,10421 8587,10406 8655,10390 8723,10373 8792,10356 8860,10337 8928,10319 8997,10299 9065,10279 9133,10258 9202,10237 9270,10215 9338,10191 9407,10167 9475,10142 9542,10116 9611,10089 9679,10061 9747,10032 9816,10001 9884,9970 9952,9937 10021,9902 10089,9866 10157,9829 10226,9791 10294,9750 10362,9708 10431,9665 10499,9620 10568,9573 10636,9524 10704,9473 10773,9421 10841,9367 10909,9311 10978,9253 11046,9194 11114,9133 11183,9069 11251,9004 11319,8937 11388,8869 11456,8798 11524,8726 11593,8651 11661,8575 11729,8497 11798,8417 11866,8335 11934,8251 12003,8165 12071,8077 12139,7986 12208,7892 12276,7796 12344,7697 12413,7594 12481,7489 12549,7379 12618,7266 12686,7149 12754,7028 12823,6903 12891,6774 12959,6639 13028,6500 13096,6356 13164,6207 13233,6053 13301,5894 13369,5729 13438,5559 13506,5385 13574,5206 13643,5023 13711,4836 13779,4645 13848,4451 13916,4255 13984,4055 14053,3853 14121,3649 14189,3443 14258,3235 14326,3026 14394,2816 14463,2604 14531,2393 14600,2181"/>
 <path fill="none" stroke="rgb(87,157,28)" stroke-width="105" stroke-linejoin="round" d="M 2300,10725 L 2368,10725 2436,10725 2505,10725 2573,10725 2641,10725 2710,10725 2778,10725 2846,10725 2915,10725 2983,10725 3051,10725 3120,10725 3188,10725 3256,10725 3325,10725 3393,10725 3461,10725 3530,10725 3598,10725 3666,10725 3735,10725 3803,10725 3871,10725 3940,10725 4008,10725 4076,10725 4145,10724 4213,10724 4281,10724 4350,10724 4418,10724 4486,10724 4555,10724 4623,10724 4691,10724 4760,10724 4828,10723 4896,10723 4965,10723 5033,10723 5101,10723 5170,10722 5238,10722 5306,10722 5375,10722 5443,10722 5511,10721 5580,10721 5648,10721 5716,10721 5785,10720 5853,10720 5921,10720 5990,10719 6058,10719 6126,10718 6195,10718 6263,10718 6331,10717 6400,10717 6468,10716 6537,10716 6605,10715 6673,10715 6742,10714 6810,10714 6878,10713 6947,10713 7015,10712 7083,10711 7152,10711 7220,10710 7288,10709 7357,10708 7425,10707 7493,10706 7562,10706 7630,10705 7698,10704 7767,10703 7835,10701 7903,10700 7972,10699 8040,10698 8108,10697 8177,10695 8245,10694 8313,10693 8382,10691 8450,10690 8518,10688 8587,10686 8655,10685 8723,10683 8792,10681 8860,10679 8928,10677 8997,10675 9065,10673 9133,10671 9202,10669 9270,10667 9338,10665 9407,10662 9475,10660 9542,10657 9611,10655 9679,10652 9747,10649 9816,10646 9884,10643 9952,10640 10021,10637 10089,10633 10157,10630 10226,10626 10294,10623 10362,10619 10431,10615 10499,10611 10568,10606 10636,10602 10704,10597 10773,10593 10841,10588 10909,10583 10978,10578 11046,10573 11114,10567 11183,10562 11251,10556 11319,10550 11388,10544 11456,10538 11524,10532 11593,10526 11661,10519 11729,10512 11798,10506 11866,10499 11934,10491 12003,10484 12071,10477 12139,10469 12208,10461 12276,10453 12344,10445 12413,10436 12481,10428 12549,10419 12618,10410 12686,10400 12754,10390 12823,10380 12891,10370 12959,10359 13028,10348 13096,10337 13164,10325 13233,10313 13301,10300 13369,10287 13438,10274 13506,10261 13574,10247 13643,10233 13711,10218 13779,10204 13848,10189 13916,10174 13984,10158 14053,10143 14121,10127 14189,10112 14258,10096 14326,10080 14394,10064 14463,10048 14531,10031 14600,10015"/>
 <text class="TextShape"><tspan class="TextParagraph" font-family="Arial" font-size="353px" font-weight="400"><tspan class="TextPosition" x="2207" y="11294"><tspan fill="rgb(60,60,60)" stroke="none">5</tspan></tspan></tspan></text>
 <text class="TextShape"><tspan class="TextParagraph" font-family="Arial" font-size="353px" font-weight="400"><tspan class="TextPosition" x="3481" y="11294"><tspan fill="rgb(60,60,60)" stroke="none">10</tspan></tspan></tspan></text>
 <text class="TextShape"><tspan class="TextParagraph" font-family="Arial" font-size="353px" font-weight="400"><tspan class="TextPosition" x="4848" y="11294"><tspan fill="rgb(60,60,60)" stroke="none">15</tspan></tspan></tspan></text>
 <text class="TextShape"><tspan class="TextParagraph" font-family="Arial" font-size="353px" font-weight="400"><tspan class="TextPosition" x="6215" y="11294"><tspan fill="rgb(60,60,60)" stroke="none">20</tspan></tspan></tspan></text>
 <text class="TextShape"><tspan class="TextParagraph" font-family="Arial" font-size="353px" font-weight="400"><tspan class="TextPosition" x="7582" y="11294"><tspan fill="rgb(60,60,60)" stroke="none">25</tspan></tspan></tspan></text>
 <text class="TextShape"><tspan class="TextParagraph" font-family="Arial" font-size="353px" font-weight="400"><tspan class="TextPosition" x="8948" y="11294"><tspan fill="rgb(60,60,60)" stroke="none">30</tspan></tspan></tspan></text>
 <text class="TextShape"><tspan class="TextParagraph" font-family="Arial" font-size="353px" font-weight="400"><tspan class="TextPosition" x="10315" y="11294"><tspan fill="rgb(60,60,60)" stroke="none">35</tspan></tspan></tspan></text>
 <text class="TextShape"><tspan class="TextParagraph" font-family="Arial" font-size="353px" font-weight="400"><tspan class="TextPosition" x="11682" y="11294"><tspan fill="rgb(60,60,60)" stroke="none">40</tspan></tspan></tspan></text>
 <text class="TextShape"><tspan class="TextParagraph" font-family="Arial" font-size="353px" font-weight="400"><tspan class="TextPosition" x="13049" y="11294"><tspan fill="rgb(60,60,60)" stroke="none">45</tspan></tspan></tspan></text>
 <text class="TextShape"><tspan class="TextParagraph" font-family="Arial" font-size="353px" font-weight="400"><tspan class="TextPosition" x="14416" y="11294"><tspan fill="rgb(60,60,60)" stroke="none">50</tspan></tspan></tspan></text>
 <text class="TextShape"><tspan class="TextParagraph" font-family="Arial" font-size="353px" font-weight="400"><tspan class="TextPosition" x="1865" y="10847"><tspan fill="rgb(60,60,60)" stroke="none">0</tspan></tspan></tspan></text>
 <text class="TextShape"><tspan class="TextParagraph" font-family="Arial" font-size="353px" font-weight="400"><tspan class="TextPosition" x="939" y="9809"><tspan fill="rgb(60,60,60)" stroke="none">100000</tspan></tspan></tspan></text>
 <text class="TextShape"><tspan class="TextParagraph" font-family="Arial" font-size="353px" font-weight="400"><tspan class="TextPosition" x="939" y="8772"><tspan fill="rgb(60,60,60)" stroke="none">200000</tspan></tspan></tspan></text>
 <text class="TextShape"><tspan class="TextParagraph" font-family="Arial" font-size="353px" font-weight="400"><tspan class="TextPosition" x="939" y="7734"><tspan fill="rgb(60,60,60)" stroke="none">300000</tspan></tspan></tspan></text>
 <text class="TextShape"><tspan class="TextParagraph" font-family="Arial" font-size="353px" font-weight="400"><tspan class="TextPosition" x="939" y="6697"><tspan fill="rgb(60,60,60)" stroke="none">400000</tspan></tspan></tspan></text>
 <text class="TextShape"><tspan class="TextParagraph" font-family="Arial" font-size="353px" font-weight="400"><tspan class="TextPosition" x="939" y="5659"><tspan fill="rgb(60,60,60)" stroke="none">500000</tspan></tspan></tspan></text>
 <text class="TextShape"><tspan class="TextParagraph" font-family="Arial" font-size="353px" font-weight="400"><tspan class="TextPosition" x="939" y="4622"><tspan fill="rgb(60,60,60)" stroke="none">600000</tspan></tspan></tspan></text>
 <text class="TextShape"><tspan class="TextParagraph" font-family="Arial" font-size="353px" font-weight="400"><tspan class="TextPosition" x="939" y="3584"><tspan fill="rgb(60,60,60)" stroke="none">700000</tspan></tspan></tspan></text>
 <text class="TextShape"><tspan class="TextParagraph" font-family="Arial" font-size="353px" font-weight="400"><tspan class="TextPosition" x="939" y="2547"><tspan fill="rgb(60,60,60)" stroke="none">800000</tspan></tspan></tspan></text>
 <text class="TextShape"><tspan class="TextParagraph" font-family="Arial" font-size="353px" font-weight="400"><tspan class="TextPosition" x="939" y="1510"><tspan fill="rgb(60,60,60)" stroke="none">900000</tspan></tspan></tspan></text>
 <path fill="none" stroke="rgb(0,69,134)" stroke-width="105" stroke-linejoin="round" d="M 14836,2681 L 15636,2681"/>
 <path fill="none" stroke="rgb(255,66,14)" stroke-width="105" stroke-linejoin="round" d="M 14836,4677 L 15636,4677"/>
 <path fill="none" stroke="rgb(255,211,32)" stroke-width="105" stroke-linejoin="round" d="M 14836,6672 L 15636,6672"/>
 <path fill="none" stroke="rgb(87,157,28)" stroke-width="105" stroke-linejoin="round" d="M 14836,9065 L 15636,9065"/>
 <text class="TextShape"><tspan class="TextParagraph" font-family="Arial" font-size="353px" font-weight="400"><tspan class="TextPosition" x="15736" y="2824"><tspan fill="rgb(60,60,60)" stroke="none">Implementacja </tspan></tspan><tspan class="TextPosition" x="15736" y="3221"><tspan fill="rgb(60,60,60)" stroke="none">prosta, metoda 2</tspan></tspan></tspan></text>
 <text class="TextShape"><tspan class="TextParagraph" font-family="Arial" font-size="353px" font-weight="400"><tspan class="TextPosition" x="15736" y="4820"><tspan fill="rgb(60,60,60)" stroke="none">Implementacja </tspan></tspan><tspan class="TextPosition" x="15736" y="5217"><tspan fill="rgb(60,60,60)" stroke="none">prosta, metoda 1</tspan></tspan></tspan></text>
 <text class="TextShape"><tspan class="TextParagraph" font-family="Arial" font-size="353px" font-weight="400"><tspan class="TextPosition" x="15736" y="6815"><tspan fill="rgb(60,60,60)" stroke="none">Implementacja </tspan></tspan><tspan class="TextPosition" x="15736" y="7212"><tspan fill="rgb(60,60,60)" stroke="none">macierzowa, </tspan></tspan><tspan class="TextPosition" x="15736" y="7609"><tspan fill="rgb(60,60,60)" stroke="none">metoda 2</tspan></tspan></tspan></text>
 <text class="TextShape"><tspan class="TextParagraph" font-family="Arial" font-size="353px" font-weight="400"><tspan class="TextPosition" x="15736" y="9208"><tspan fill="rgb(60,60,60)" stroke="none">Implementacja </tspan></tspan><tspan class="TextPosition" x="15736" y="9605"><tspan fill="rgb(60,60,60)" stroke="none">macierzowa, </tspan></tspan><tspan class="TextPosition" x="15736" y="10002"><tspan fill="rgb(60,60,60)" stroke="none">metoda 1</tspan></tspan></tspan></text>
 <text class="TextShape"><tspan class="TextParagraph" font-family="Times New Roman" font-size="423px" font-weight="400"><tspan class="TextPosition" x="971" y="504"><tspan fill="rgb(0,0,0)" stroke="none">t[ms]</tspan></tspan></tspan></text>
 <text class="TextShape"><tspan class="TextParagraph" font-family="Times New Roman" font-size="423px" font-weight="400"><tspan class="TextPosition" x="15022" y="10744"><tspan fill="rgb(0,0,0)" stroke="none">N</tspan></tspan></tspan></text>
</svg>