<?xml version="1.0" encoding="UTF-8"?>
<!DOCTYPE svg PUBLIC "-//W3C//DTD SVG 1.1//EN" "http://www.w3.org/Graphics/SVG/1.1/DTD/svg11.dtd">
<svg width="160mm" height="90mm" viewBox="0 0 16000 9000" version="1.1" baseProfile="tiny" xmlns="http://www.w3.org/2000/svg" stroke-width="28.222" stroke-linejoin="round" xml:space="preserve">
 <path fill="rgb(114,159,207)" stroke="none" d="M 0,7 L 16001,7 16001,9006 0,9006 0,7 Z"/>
 <path fill="rgb(255,255,255)" stroke="none" d="M 8001,9001 L 0,9001 0,2 16001,2 16001,9001 8001,9001 Z"/>
 <path fill="none" stroke="rgb(179,179,179)" stroke-linejoin="round" d="M 6756,7767 L 2425,7767 2425,1154 11086,1154 11086,7767 6756,7767 Z"/>
 <path fill="none" stroke="rgb(179,179,179)" stroke-linejoin="round" d="M 11086,7766 L 2425,7766"/>
 <path fill="none" stroke="rgb(179,179,179)" stroke-linejoin="round" d="M 11086,7031 L 2425,7031"/>
 <path fill="none" stroke="rgb(179,179,179)" stroke-linejoin="round" d="M 11086,6296 L 2425,6296"/>
 <path fill="none" stroke="rgb(179,179,179)" stroke-linejoin="round" d="M 11086,5561 L 2425,5561"/>
 <path fill="none" stroke="rgb(179,179,179)" stroke-linejoin="round" d="M 11086,4826 L 2425,4826"/>
 <path fill="none" stroke="rgb(179,179,179)" stroke-linejoin="round" d="M 11086,4092 L 2425,4092"/>
 <path fill="none" stroke="rgb(179,179,179)" stroke-linejoin="round" d="M 11086,3357 L 2425,3357"/>
 <path fill="none" stroke="rgb(179,179,179)" stroke-linejoin="round" d="M 11086,2622 L 2425,2622"/>
 <path fill="none" stroke="rgb(179,179,179)" stroke-linejoin="round" d="M 11086,1887 L 2425,1887"/>
 <path fill="none" stroke="rgb(179,179,179)" stroke-linejoin="round" d="M 11086,1153 L 2425,1153"/>
 <path fill="none" stroke="rgb(179,179,179)" stroke-linejoin="round" d="M 2425,7916 L 2425,7766"/>
 <path fill="none" stroke="rgb(179,179,179)" stroke-linejoin="round" d="M 3387,7916 L 3387,7766"/>
 <path fill="none" stroke="rgb(179,179,179)" stroke-linejoin="round" d="M 4349,7916 L 4349,7766"/>
 <path fill="none" stroke="rgb(179,179,179)" stroke-linejoin="round" d="M 5312,7916 L 5312,7766"/>
 <path fill="none" stroke="rgb(179,179,179)" stroke-linejoin="round" d="M 6274,7916 L 6274,7766"/>
 <path fill="none" stroke="rgb(179,179,179)" stroke-linejoin="round" d="M 7237,7916 L 7237,7766"/>
 <path fill="none" stroke="rgb(179,179,179)" stroke-linejoin="round" d="M 8198,7916 L 8198,7766"/>
 <path fill="none" stroke="rgb(179,179,179)" stroke-linejoin="round" d="M 9161,7916 L 9161,7766"/>
 <path fill="none" stroke="rgb(179,179,179)" stroke-linejoin="round" d="M 10123,7916 L 10123,7766"/>
 <path fill="none" stroke="rgb(179,179,179)" stroke-linejoin="round" d="M 11086,7916 L 11086,7766"/>
 <path fill="none" stroke="rgb(179,179,179)" stroke-linejoin="round" d="M 2425,7766 L 11086,7766"/>
 <path fill="none" stroke="rgb(179,179,179)" stroke-linejoin="round" d="M 2275,7766 L 2425,7766"/>
 <path fill="none" stroke="rgb(179,179,179)" stroke-linejoin="round" d="M 2275,7031 L 2425,7031"/>
 <path fill="none" stroke="rgb(179,179,179)" stroke-linejoin="round" d="M 2275,6296 L 2425,6296"/>
 <path fill="none" stroke="rgb(179,179,179)" stroke-linejoin="round" d="M 2275,5561 L 2425,5561"/>
 <path fill="none" stroke="rgb(179,179,179)" stroke-linejoin="round" d="M 2275,4826 L 2425,4826"/>
 <path fill="none" stroke="rgb(179,179,179)" stroke-linejoin="round" d="M 2275,4092 L 2425,4092"/>
 <path fill="none" stroke="rgb(179,179,179)" stroke-linejoin="round" d="M 2275,3357 L 2425,3357"/>
 <path fill="none" stroke="rgb(179,179,179)" stroke-linejoin="round" d="M 2275,2622 L 2425,2622"/>
 <path fill="none" stroke="rgb(179,179,179)" stroke-linejoin="round" d="M 2275,1887 L 2425,1887"/>
 <path fill="none" stroke="rgb(179,179,179)" stroke-linejoin="round" d="M 2275,1153 L 2425,1153"/>
 <path fill="none" stroke="rgb(179,179,179)" stroke-linejoin="round" d="M 2425,7766 L 2425,1153"/>
 <path fill="none" stroke="rgb(0,69,134)" stroke-width="105" stroke-linejoin="round" d="M 2425,7765 L 2473,7765 2521,7765 2569,7765 2617,7765 2665,7765 2713,7765 2761,7765 2809,7765 2858,7765 2906,7765 2954,7765 3002,7765 3050,7765 3098,7765 3146,7765 3194,7765 3243,7765 3291,7764 3339,7764 3387,7764 3435,7764 3483,7764 3531,7764 3579,7764 3628,7763 3676,7763 3724,7763 3772,7762 3820,7762 3868,7762 3916,7761 3964,7761 4013,7760 4061,7760 4109,7759 4157,7759 4205,7758 4253,7757 4301,7756 4349,7756 4398,7755 4446,7754 4494,7753 4542,7751 4590,7750 4638,7749 4686,7748 4734,7746 4782,7745 4831,7743 4879,7741 4927,7739 4975,7737 5023,7735 5071,7733 5119,7731 5167,7728 5216,7726 5264,7723 5312,7720 5360,7717 5408,7714 5456,7711 5504,7707 5552,7703 5601,7700 5649,7696 5697,7691 5745,7687 5793,7682 5841,7677 5889,7672 5937,7666 5986,7661 6034,7654 6082,7648 6130,7642 6178,7635 6226,7627 6274,7620 6322,7612 6371,7604 6419,7595 6467,7586 6515,7577 6563,7567 6611,7557 6659,7546 6707,7535 6755,7523 6804,7511 6852,7499 6900,7486 6948,7473 6996,7459 7044,7444 7092,7429 7140,7414 7189,7397 7237,7381 7285,7363 7333,7345 7381,7327 7429,7308 7477,7288 7525,7267 7574,7245 7622,7223 7670,7200 7718,7176 7766,7151 7814,7126 7862,7099 7910,7071 7959,7043 8006,7013 8054,6982 8102,6950 8150,6917 8198,6883 8246,6848 8294,6811 8343,6774 8391,6735 8439,6694 8487,6653 8535,6610 8583,6566 8631,6521 8679,6474 8728,6426 8776,6377 8824,6326 8872,6274 8920,6220 8968,6165 9016,6109 9064,6051 9112,5992 9161,5931 9209,5869 9257,5805 9305,5739 9353,5672 9401,5602 9449,5531 9497,5457 9546,5381 9594,5303 9642,5223 9690,5140 9738,5054 9786,4965 9834,4874 9882,4779 9931,4682 9979,4581 10027,4478 10075,4371 10123,4260 10171,4146 10219,4028 10267,3907 10316,3783 10364,3656 10412,3526 10460,3394 10508,3260 10556,3123 10604,2984 10652,2844 10701,2702 10749,2558 10797,2413 10845,2268 10893,2121 10941,1973 10989,1825 11037,1677 11086,1528"/>
 <path fill="none" stroke="rgb(255,66,14)" stroke-width="105" stroke-linejoin="round" d="M 2425,7765 L 2473,7765 2521,7765 2569,7765 2617,7765 2665,7765 2713,7765 2761,7765 2809,7765 2858,7765 2906,7765 2954,7765 3002,7765 3050,7765 3098,7765 3146,7765 3194,7765 3243,7765 3291,7765 3339,7765 3387,7764 3435,7764 3483,7764 3531,7764 3579,7764 3628,7764 3676,7763 3724,7763 3772,7763 3820,7763 3868,7763 3916,7762 3964,7762 4013,7762 4061,7761 4109,7761 4157,7760 4205,7760 4253,7759 4301,7759 4349,7758 4398,7758 4446,7757 4494,7756 4542,7755 4590,7755 4638,7754 4686,7753 4734,7752 4782,7751 4831,7750 4879,7749 4927,7747 4975,7746 5023,7745 5071,7743 5119,7742 5167,7740 5216,7738 5264,7737 5312,7735 5360,7733 5408,7731 5456,7729 5504,7726 5552,7724 5601,7721 5649,7719 5697,7716 5745,7713 5793,7710 5841,7707 5889,7704 5937,7700 5986,7697 6034,7693 6082,7689 6130,7685 6178,7681 6226,7676 6274,7671 6322,7667 6371,7661 6419,7656 6467,7651 6515,7645 6563,7639 6611,7632 6659,7626 6707,7619 6755,7612 6804,7605 6852,7597 6900,7589 6948,7581 6996,7573 7044,7564 7092,7555 7140,7546 7189,7536 7237,7526 7285,7515 7333,7505 7381,7493 7429,7482 7477,7470 7525,7458 7574,7445 7622,7432 7670,7418 7718,7404 7766,7389 7814,7374 7862,7358 7910,7342 7959,7325 8006,7308 8054,7290 8102,7271 8150,7252 8198,7232 8246,7212 8294,7190 8343,7169 8391,7146 8439,7123 8487,7099 8535,7075 8583,7050 8631,7024 8679,6997 8728,6970 8776,6942 8824,6914 8872,6884 8920,6854 8968,6823 9016,6792 9064,6759 9112,6726 9161,6693 9209,6658 9257,6623 9305,6586 9353,6549 9401,6511 9449,6472 9497,6432 9546,6390 9594,6347 9642,6303 9690,6258 9738,6211 9786,6163 9834,6113 9882,6062 9931,6009 9979,5955 10027,5898 10075,5840 10123,5780 10171,5719 10219,5655 10267,5589 10316,5522 10364,5454 10412,5384 10460,5313 10508,5240 10556,5166 10604,5091 10652,5016 10701,4939 10749,4862 10797,4784 10845,4705 10893,4626 10941,4547 10989,4468 11037,4388 11086,4308"/>
 <path fill="none" stroke="rgb(255,211,32)" stroke-width="105" stroke-linejoin="round" d="M 2425,7765 L 2473,7765 2521,7765 2569,7765 2617,7765 2665,7765 2713,7765 2761,7765 2809,7765 2858,7765 2906,7765 2954,7765 3002,7765 3050,7765 3098,7765 3146,7765 3194,7765 3243,7765 3291,7765 3339,7765 3387,7765 3435,7765 3483,7765 3531,7765 3579,7765 3628,7765 3676,7765 3724,7765 3772,7764 3820,7764 3868,7764 3916,7764 3964,7764 4013,7764 4061,7764 4109,7763 4157,7763 4205,7763 4253,7763 4301,7762 4349,7762 4398,7762 4446,7761 4494,7761 4542,7760 4590,7760 4638,7759 4686,7759 4734,7758 4782,7758 4831,7757 4879,7756 4927,7756 4975,7755 5023,7754 5071,7753 5119,7752 5167,7751 5216,7750 5264,7749 5312,7748 5360,7747 5408,7745 5456,7744 5504,7743 5552,7741 5601,7739 5649,7738 5697,7736 5745,7734 5793,7732 5841,7730 5889,7728 5937,7725 5986,7723 6034,7720 6082,7718 6130,7715 6178,7712 6226,7709 6274,7705 6322,7702 6371,7698 6419,7694 6467,7690 6515,7686 6563,7682 6611,7678 6659,7673 6707,7668 6755,7663 6804,7658 6852,7652 6900,7647 6948,7641 6996,7634 7044,7628 7092,7621 7140,7615 7189,7607 7237,7600 7285,7592 7333,7585 7381,7576 7429,7568 7477,7559 7525,7550 7574,7540 7622,7530 7670,7520 7718,7509 7766,7498 7814,7486 7862,7474 7910,7461 7959,7448 8006,7434 8054,7420 8102,7405 8150,7390 8198,7374 8246,7357 8294,7340 8343,7322 8391,7303 8439,7284 8487,7265 8535,7244 8583,7223 8631,7201 8679,7179 8728,7156 8776,7132 8824,7108 8872,7083 8920,7057 8968,7031 9016,7004 9064,6976 9112,6948 9161,6919 9209,6889 9257,6859 9305,6827 9353,6795 9401,6762 9449,6728 9497,6693 9546,6657 9594,6619 9642,6580 9690,6540 9738,6499 9786,6456 9834,6412 9882,6366 9931,6318 9979,6269 10027,6218 10075,6165 10123,6111 10171,6054 10219,5996 10267,5935 10316,5874 10364,5810 10412,5745 10460,5679 10508,5612 10556,5543 10604,5473 10652,5403 10701,5331 10749,5259 10797,5186 10845,5112 10893,5038 10941,4964 10989,4889 11037,4814 11086,4739"/>
 <path fill="none" stroke="rgb(87,157,28)" stroke-width="105" stroke-linejoin="round" d="M 2425,7765 L 2473,7765 2521,7765 2569,7765 2617,7765 2665,7765 2713,7765 2761,7765 2809,7765 2858,7765 2906,7765 2954,7765 3002,7765 3050,7765 3098,7765 3146,7765 3194,7765 3243,7765 3291,7765 3339,7765 3387,7765 3435,7765 3483,7765 3531,7765 3579,7765 3628,7765 3676,7765 3724,7765 3772,7765 3820,7765 3868,7765 3916,7765 3964,7765 4013,7765 4061,7765 4109,7765 4157,7765 4205,7765 4253,7765 4301,7765 4349,7765 4398,7765 4446,7764 4494,7764 4542,7764 4590,7764 4638,7764 4686,7764 4734,7764 4782,7764 4831,7764 4879,7764 4927,7764 4975,7763 5023,7763 5071,7763 5119,7763 5167,7763 5216,7763 5264,7763 5312,7762 5360,7762 5408,7762 5456,7762 5504,7762 5552,7762 5601,7761 5649,7761 5697,7761 5745,7761 5793,7760 5841,7760 5889,7760 5937,7760 5986,7759 6034,7759 6082,7759 6130,7758 6178,7758 6226,7758 6274,7757 6322,7757 6371,7757 6419,7756 6467,7756 6515,7755 6563,7755 6611,7754 6659,7754 6707,7753 6755,7753 6804,7752 6852,7752 6900,7751 6948,7750 6996,7750 7044,7749 7092,7748 7140,7748 7189,7747 7237,7746 7285,7746 7333,7745 7381,7744 7429,7743 7477,7742 7525,7741 7574,7740 7622,7739 7670,7738 7718,7737 7766,7736 7814,7735 7862,7734 7910,7733 7959,7732 8006,7730 8054,7729 8102,7728 8150,7726 8198,7725 8246,7723 8294,7722 8343,7720 8391,7719 8439,7717 8487,7715 8535,7713 8583,7711 8631,7709 8679,7708 8728,7705 8776,7703 8824,7701 8872,7699 8920,7697 8968,7695 9016,7692 9064,7690 9112,7688 9161,7685 9209,7683 9257,7680 9305,7677 9353,7675 9401,7672 9449,7669 9497,7666 9546,7663 9594,7660 9642,7657 9690,7654 9738,7650 9786,7647 9834,7643 9882,7640 9931,7636 9979,7632 10027,7628 10075,7624 10123,7619 10171,7615 10219,7610 10267,7606 10316,7601 10364,7596 10412,7591 10460,7586 10508,7581 10556,7575 10604,7570 10652,7565 10701,7559 10749,7554 10797,7548 10845,7542 10893,7537 10941,7531 10989,7525 11037,7520 11086,7514"/>
 <text class="TextShape"><tspan class="TextParagraph" font-family="Arial" font-size="353px" font-weight="400"><tspan class="TextPosition" x="2332" y="8334"><tspan fill="rgb(60,60,60)" stroke="none">5</tspan></tspan></tspan></text>
 <text class="TextShape"><tspan class="TextParagraph" font-family="Arial" font-size="353px" font-weight="400"><tspan class="TextPosition" x="3202" y="8334"><tspan fill="rgb(60,60,60)" stroke="none">10</tspan></tspan></tspan></text>
 <text class="TextShape"><tspan class="TextParagraph" font-family="Arial" font-size="353px" font-weight="400"><tspan class="TextPosition" x="4164" y="8334"><tspan fill="rgb(60,60,60)" stroke="none">15</tspan></tspan></tspan></text>
 <text class="TextShape"><tspan class="TextParagraph" font-family="Arial" font-size="353px" font-weight="400"><tspan class="TextPosition" x="5127" y="8334"><tspan fill="rgb(60,60,60)" stroke="none">20</tspan></tspan></tspan></text>
 <text class="TextShape"><tspan class="TextParagraph" font-family="Arial" font-size="353px" font-weight="400"><tspan class="TextPosition" x="6089" y="8334"><tspan fill="rgb(60,60,60)" stroke="none">25</tspan></tspan></tspan></text>
 <text class="TextShape"><tspan class="TextParagraph" font-family="Arial" font-size="353px" font-weight="400"><tspan class="TextPosition" x="7052" y="8334"><tspan fill="rgb(60,60,60)" stroke="none">30</tspan></tspan></tspan></text>
 <text class="TextShape"><tspan class="TextParagraph" font-family="Arial" font-size="353px" font-weight="400"><tspan class="TextPosition" x="8014" y="8334"><tspan fill="rgb(60,60,60)" stroke="none">35</tspan></tspan></tspan></text>
 <text class="TextShape"><tspan class="TextParagraph" font-family="Arial" font-size="353px" font-weight="400"><tspan class="TextPosition" x="8977" y="8334"><tspan fill="rgb(60,60,60)" stroke="none">40</tspan></tspan></tspan></text>
 <text class="TextShape"><tspan class="TextParagraph" font-family="Arial" font-size="353px" font-weight="400"><tspan class="TextPosition" x="9939" y="8334"><tspan fill="rgb(60,60,60)" stroke="none">45</tspan></tspan></tspan></text>
 <text class="TextShape"><tspan class="TextParagraph" font-family="Arial" font-size="353px" font-weight="400"><tspan class="TextPosition" x="10902" y="8334"><tspan fill="rgb(60,60,60)" stroke="none">50</tspan></tspan></tspan></text>
 <text class="TextShape"><tspan class="TextParagraph" font-family="Arial" font-size="353px" font-weight="400"><tspan class="TextPosition" x="1990" y="7887"><tspan fill="rgb(60,60,60)" stroke="none">0</tspan></tspan></tspan></text>
 <text class="TextShape"><tspan class="TextParagraph" font-family="Arial" font-size="353px" font-weight="400"><tspan class="TextPosition" x="1064" y="7152"><tspan fill="rgb(60,60,60)" stroke="none">200000</tspan></tspan></tspan></text>
 <text class="TextShape"><tspan class="TextParagraph" font-family="Arial" font-size="353px" font-weight="400"><tspan class="TextPosition" x="1064" y="6417"><tspan fill="rgb(60,60,60)" stroke="none">400000</tspan></tspan></tspan></text>
 <text class="TextShape"><tspan class="TextParagraph" font-family="Arial" font-size="353px" font-weight="400"><tspan class="TextPosition" x="1064" y="5682"><tspan fill="rgb(60,60,60)" stroke="none">600000</tspan></tspan></tspan></text>
 <text class="TextShape"><tspan class="TextParagraph" font-family="Arial" font-size="353px" font-weight="400"><tspan class="TextPosition" x="1064" y="4947"><tspan fill="rgb(60,60,60)" stroke="none">800000</tspan></tspan></tspan></text>
 <text class="TextShape"><tspan class="TextParagraph" font-family="Arial" font-size="353px" font-weight="400"><tspan class="TextPosition" x="879" y="4212"><tspan fill="rgb(60,60,60)" stroke="none">1000000</tspan></tspan></tspan></text>
 <text class="TextShape"><tspan class="TextParagraph" font-family="Arial" font-size="353px" font-weight="400"><tspan class="TextPosition" x="879" y="3477"><tspan fill="rgb(60,60,60)" stroke="none">1200000</tspan></tspan></tspan></text>
 <text class="TextShape"><tspan class="TextParagraph" font-family="Arial" font-size="353px" font-weight="400"><tspan class="TextPosition" x="879" y="2742"><tspan fill="rgb(60,60,60)" stroke="none">1400000</tspan></tspan></tspan></text>
 <text class="TextShape"><tspan class="TextParagraph" font-family="Arial" font-size="353px" font-weight="400"><tspan class="TextPosition" x="879" y="2007"><tspan fill="rgb(60,60,60)" stroke="none">1600000</tspan></tspan></tspan></text>
 <text class="TextShape"><tspan class="TextParagraph" font-family="Arial" font-size="353px" font-weight="400"><tspan class="TextPosition" x="879" y="1273"><tspan fill="rgb(60,60,60)" stroke="none">1800000</tspan></tspan></tspan></text>
 <path fill="none" stroke="rgb(0,69,134)" stroke-width="105" stroke-linejoin="round" d="M 11335,1237 L 12135,1237"/>
 <path fill="none" stroke="rgb(255,66,14)" stroke-width="105" stroke-linejoin="round" d="M 11335,3182 L 12135,3182"/>
 <path fill="none" stroke="rgb(255,211,32)" stroke-width="105" stroke-linejoin="round" d="M 11335,5126 L 12135,5126"/>
 <path fill="none" stroke="rgb(87,157,28)" stroke-width="105" stroke-linejoin="round" d="M 11335,7071 L 12135,7071"/>
 <text class="TextShape"><tspan class="TextParagraph" font-family="Arial" font-size="353px" font-weight="400"><tspan class="TextPosition" x="12235" y="1380"><tspan fill="rgb(60,60,60)" stroke="none">Implementacja </tspan></tspan><tspan class="TextPosition" x="12235" y="1777"><tspan fill="rgb(60,60,60)" stroke="none">macierzowa, bez </tspan></tspan><tspan class="TextPosition" x="12235" y="2174"><tspan fill="rgb(60,60,60)" stroke="none">BLAS, metoda 2</tspan></tspan></tspan></text>
 <text class="TextShape"><tspan class="TextParagraph" font-family="Arial" font-size="353px" font-weight="400"><tspan class="TextPosition" x="12235" y="3325"><tspan fill="rgb(60,60,60)" stroke="none">Implementacja </tspan></tspan><tspan class="TextPosition" x="12235" y="3722"><tspan fill="rgb(60,60,60)" stroke="none">macierzowa, bez </tspan></tspan><tspan class="TextPosition" x="12235" y="4119"><tspan fill="rgb(60,60,60)" stroke="none">BLAS, metoda 1</tspan></tspan></tspan></text>
 <text class="TextShape"><tspan class="TextParagraph" font-family="Arial" font-size="353px" font-weight="400"><tspan class="TextPosition" x="12235" y="5269"><tspan fill="rgb(60,60,60)" stroke="none">Implementacja </tspan></tspan><tspan class="TextPosition" x="12235" y="5666"><tspan fill="rgb(60,60,60)" stroke="none">macierzowa, z BLAS, </tspan></tspan><tspan class="TextPosition" x="12235" y="6063"><tspan fill="rgb(60,60,60)" stroke="none">metoda 2</tspan></tspan></tspan></text>
 <text class="TextShape"><tspan class="TextParagraph" font-family="Arial" font-size="353px" font-weight="400"><tspan class="TextPosition" x="12235" y="7214"><tspan fill="rgb(60,60,60)" stroke="none">Implementacja </tspan></tspan><tspan class="TextPosition" x="12235" y="7611"><tspan fill="rgb(60,60,60)" stroke="none">macierzowa, z BLAS, </tspan></tspan><tspan class="TextPosition" x="12235" y="8008"><tspan fill="rgb(60,60,60)" stroke="none">metoda 1</tspan></tspan></tspan></text>
 <text class="TextShape"><tspan class="TextParagraph" font-family="Times New Roman" font-size="423px" font-weight="400"><tspan class="TextPosition" x="1163" y="626"><tspan fill="rgb(0,0,0)" stroke="none">t[ms]</tspan></tspan></tspan></text>
 <text class="TextShape"><tspan class="TextParagraph" font-family="Times New Roman" font-size="423px" font-weight="400"><tspan class="TextPosition" x="11435" y="7912"><tspan fill="rgb(0,0,0)" stroke="none">N</tspan></tspan></tspan></text>
</svg>