<?xml version="1.0" encoding="UTF-8"?>

<svg version="1.2" baseProfile="tiny" width="297mm" height="210mm" viewBox="0 0 29700 21000" preserveAspectRatio="xMidYMid" fill-rule="evenodd" clip-path="url(#presentation_clip_path)" stroke-width="28.222" stroke-linejoin="round" xmlns="http://www.w3.org/2000/svg" xmlns:ooo="http://xml.openoffice.org/svg/export" xmlns:xlink="http://www.w3.org/1999/xlink" xml:space="preserve">
 <defs class="ClipPathGroup">
  <clipPath id="presentation_clip_path" clipPathUnits="userSpaceOnUse">
   <rect x="0" y="0" width="29700" height="21000"/>
  </clipPath>
 </defs>
 <defs>
  <font id="EmbeddedFont_1" horiz-adv-x="2048">
   <font-face font-family="Liberation Sans embedded" units-per-em="2048" font-weight="normal" font-style="normal" ascent="1852" descent="450"/>
   <missing-glyph horiz-adv-x="2048" d="M 0,0 L 2047,0 2047,2047 0,2047 0,0 Z"/>
   <glyph unicode="Ę" horiz-adv-x="1138" d="M 168,0 L 168,1409 1237,1409 1237,1253 359,1253 359,801 1177,801 1177,647 359,647 359,156 1278,156 1278,0 168,0 Z M 1278,-400 C 1259,-408 1238,-414 1215,-420 1191,-424 1166,-427 1139,-427 1069,-427 1016,-410 981,-376 946,-342 928,-297 928,-240 928,-209 934,-180 945,-154 956,-127 970,-104 986,-84 1002,-63 1019,-46 1037,-32 1054,-18 1070,-7 1083,0 L 1216,0 C 1199,-9 1182,-21 1165,-37 1148,-51 1132,-69 1118,-89 1103,-108 1092,-130 1083,-153 1074,-176 1069,-201 1069,-227 1069,-255 1077,-277 1094,-293 1110,-309 1133,-317 1163,-317 1182,-317 1202,-315 1221,-311 1240,-306 1259,-300 1278,-293 L 1278,-400 Z"/>
   <glyph unicode="Ć" horiz-adv-x="1324" d="M 792,1274 C 712,1274 641,1261 580,1234 518,1207 466,1169 425,1120 383,1071 351,1011 330,942 309,873 298,796 298,711 298,626 310,549 333,479 356,408 389,348 432,297 475,246 527,207 590,179 652,151 722,137 800,137 855,137 905,144 950,159 995,173 1035,193 1072,219 1108,245 1140,276 1169,312 1198,347 1223,387 1245,430 L 1401,352 C 1376,299 1344,250 1307,205 1270,160 1226,120 1176,87 1125,54 1068,28 1005,9 941,-10 870,-20 791,-20 677,-20 577,-2 492,35 406,71 334,122 277,187 219,252 176,329 147,418 118,507 104,605 104,711 104,821 119,920 150,1009 180,1098 224,1173 283,1236 341,1298 413,1346 498,1380 583,1413 681,1430 790,1430 940,1430 1065,1401 1166,1342 1267,1283 1341,1196 1388,1081 L 1207,1021 C 1194,1054 1176,1086 1153,1117 1130,1147 1102,1174 1068,1197 1034,1220 994,1239 949,1253 903,1267 851,1274 792,1274 Z M 667,1530 L 667,1550 884,1776 1091,1776 1091,1747 781,1530 667,1530 Z"/>
   <glyph unicode="U" horiz-adv-x="1192" d="M 731,-20 C 654,-20 580,-10 511,11 442,32 381,64 329,108 276,151 235,207 204,274 173,341 158,420 158,512 L 158,1409 349,1409 349,528 C 349,457 359,396 378,347 397,297 423,256 457,225 491,194 531,171 578,157 624,142 675,135 730,135 785,135 836,142 885,157 934,172 976,195 1013,227 1050,259 1079,301 1100,353 1121,404 1131,467 1131,541 L 1131,1409 1321,1409 1321,530 C 1321,436 1306,355 1275,286 1244,217 1201,159 1148,114 1095,69 1032,35 961,13 889,-9 812,-20 731,-20 Z"/>
   <glyph unicode="P" horiz-adv-x="1112" d="M 1258,985 C 1258,924 1248,867 1228,814 1207,761 1177,715 1137,676 1096,637 1046,606 985,583 924,560 854,549 773,549 L 359,549 359,0 168,0 168,1409 761,1409 C 844,1409 917,1399 979,1379 1041,1358 1093,1330 1134,1293 1175,1256 1206,1211 1227,1159 1248,1106 1258,1048 1258,985 Z M 1066,983 C 1066,1072 1039,1140 984,1187 929,1233 847,1256 738,1256 L 359,1256 359,700 746,700 C 856,700 937,724 989,773 1040,822 1066,892 1066,983 Z"/>
   <glyph unicode="M" horiz-adv-x="1377" d="M 1366,0 L 1366,940 C 1366,974 1366,1009 1367,1044 1368,1079 1369,1112 1370,1141 1371,1175 1373,1208 1375,1240 1366,1206 1356,1172 1346,1139 1337,1110 1328,1080 1318,1048 1307,1015 1297,986 1287,960 L 923,0 789,0 420,960 C 416,970 412,982 408,995 403,1008 399,1023 394,1038 389,1053 384,1068 379,1084 374,1099 369,1115 364,1130 353,1165 342,1202 331,1240 332,1203 333,1166 334,1129 335,1098 336,1065 337,1031 338,996 338,966 338,940 L 338,0 168,0 168,1409 419,1409 794,432 C 799,419 804,402 811,381 818,360 824,338 830,316 836,294 842,273 847,254 852,234 855,219 857,208 859,219 863,234 868,254 873,274 880,295 887,317 894,339 900,360 907,381 914,402 920,419 925,432 L 1293,1409 1538,1409 1538,0 1366,0 Z"/>
   <glyph unicode="I" horiz-adv-x="213" d="M 189,0 L 189,1409 380,1409 380,0 189,0 Z"/>
   <glyph unicode="C" horiz-adv-x="1324" d="M 792,1274 C 712,1274 641,1261 580,1234 518,1207 466,1169 425,1120 383,1071 351,1011 330,942 309,873 298,796 298,711 298,626 310,549 333,479 356,408 389,348 432,297 475,246 527,207 590,179 652,151 722,137 800,137 855,137 905,144 950,159 995,173 1035,193 1072,219 1108,245 1140,276 1169,312 1198,347 1223,387 1245,430 L 1401,352 C 1376,299 1344,250 1307,205 1270,160 1226,120 1176,87 1125,54 1068,28 1005,9 941,-10 870,-20 791,-20 677,-20 577,-2 492,35 406,71 334,122 277,187 219,252 176,329 147,418 118,507 104,605 104,711 104,821 119,920 150,1009 180,1098 224,1173 283,1236 341,1298 413,1346 498,1380 583,1413 681,1430 790,1430 940,1430 1065,1401 1166,1342 1267,1283 1341,1196 1388,1081 L 1207,1021 C 1194,1054 1176,1086 1153,1117 1130,1147 1102,1174 1068,1197 1034,1220 994,1239 949,1253 903,1267 851,1274 792,1274 Z"/>
   <glyph unicode="A" horiz-adv-x="1377" d="M 1167,0 L 1006,412 364,412 202,0 4,0 579,1409 796,1409 1362,0 1167,0 Z M 768,1026 C 757,1053 747,1080 738,1107 728,1134 719,1159 712,1182 705,1204 699,1223 694,1238 689,1253 686,1262 685,1265 684,1262 681,1252 676,1237 671,1222 665,1203 658,1180 650,1157 641,1132 632,1105 622,1078 612,1051 602,1024 L 422,561 949,561 768,1026 Z"/>
  </font>
 </defs>
 <defs class="TextShapeIndex">
  <g ooo:slide="id1" ooo:id-list="id3 id4 id5 id6 id7 id8 id9 id10 id11"/>
 </defs>
 <defs class="EmbeddedBulletChars">
  <g id="bullet-char-template(57356)" transform="scale(0.00048828125,-0.00048828125)">
   <path d="M 580,1141 L 1163,571 580,0 -4,571 580,1141 Z"/>
  </g>
  <g id="bullet-char-template(57354)" transform="scale(0.00048828125,-0.00048828125)">
   <path d="M 8,1128 L 1137,1128 1137,0 8,0 8,1128 Z"/>
  </g>
  <g id="bullet-char-template(10146)" transform="scale(0.00048828125,-0.00048828125)">
   <path d="M 174,0 L 602,739 174,1481 1456,739 174,0 Z M 1358,739 L 309,1346 659,739 1358,739 Z"/>
  </g>
  <g id="bullet-char-template(10132)" transform="scale(0.00048828125,-0.00048828125)">
   <path d="M 2015,739 L 1276,0 717,0 1260,543 174,543 174,936 1260,936 717,1481 1274,1481 2015,739 Z"/>
  </g>
  <g id="bullet-char-template(10007)" transform="scale(0.00048828125,-0.00048828125)">
   <path d="M 0,-2 C -7,14 -16,27 -25,37 L 356,567 C 262,823 215,952 215,954 215,979 228,992 255,992 264,992 276,990 289,987 310,991 331,999 354,1012 L 381,999 492,748 772,1049 836,1024 860,1049 C 881,1039 901,1025 922,1006 886,937 835,863 770,784 769,783 710,716 594,584 L 774,223 C 774,196 753,168 711,139 L 727,119 C 717,90 699,76 672,76 641,76 570,178 457,381 L 164,-76 C 142,-110 111,-127 72,-127 30,-127 9,-110 8,-76 1,-67 -2,-52 -2,-32 -2,-23 -1,-13 0,-2 Z"/>
  </g>
  <g id="bullet-char-template(10004)" transform="scale(0.00048828125,-0.00048828125)">
   <path d="M 285,-33 C 182,-33 111,30 74,156 52,228 41,333 41,471 41,549 55,616 82,672 116,743 169,778 240,778 293,778 328,747 346,684 L 369,508 C 377,444 397,411 428,410 L 1163,1116 C 1174,1127 1196,1133 1229,1133 1271,1133 1292,1118 1292,1087 L 1292,965 C 1292,929 1282,901 1262,881 L 442,47 C 390,-6 338,-33 285,-33 Z"/>
  </g>
  <g id="bullet-char-template(9679)" transform="scale(0.00048828125,-0.00048828125)">
   <path d="M 813,0 C 632,0 489,54 383,161 276,268 223,411 223,592 223,773 276,916 383,1023 489,1130 632,1184 813,1184 992,1184 1136,1130 1245,1023 1353,916 1407,772 1407,592 1407,412 1353,268 1245,161 1136,54 992,0 813,0 Z"/>
  </g>
  <g id="bullet-char-template(8226)" transform="scale(0.00048828125,-0.00048828125)">
   <path d="M 346,457 C 273,457 209,483 155,535 101,586 74,649 74,723 74,796 101,859 155,911 209,963 273,989 346,989 419,989 480,963 531,910 582,859 608,796 608,723 608,648 583,586 532,535 482,483 420,457 346,457 Z"/>
  </g>
  <g id="bullet-char-template(8211)" transform="scale(0.00048828125,-0.00048828125)">
   <path d="M -4,459 L 1135,459 1135,606 -4,606 -4,459 Z"/>
  </g>
 </defs>
 <defs class="TextEmbeddedBitmaps"/>
 <g>
  <g id="id2" class="Master_Slide">
   <g id="bg-id2" class="Background"/>
   <g id="bo-id2" class="BackgroundObjects"/>
  </g>
 </g>
 <g class="SlideGroup">
  <g>
   <g id="id1" class="Slide" clip-path="url(#presentation_clip_path)">
    <g class="Page">
     <g class="com.sun.star.drawing.CustomShape">
      <g id="id3">
       <path fill="rgb(204,0,0)" stroke="none" d="M 13128,1605 C 12810,1605 12493,1922 12493,2240 L 12493,4780 C 12493,5098 12810,5416 13128,5416 L 15668,5416 C 15986,5416 16304,5098 16304,4780 L 16304,2240 C 16304,1922 15986,1605 15668,1605 L 13128,1605 Z M 12493,1605 L 12493,1605 Z M 16304,5416 L 16304,5416 Z"/>
       <path fill="none" stroke="rgb(52,101,164)" d="M 13128,1605 C 12810,1605 12493,1922 12493,2240 L 12493,4780 C 12493,5098 12810,5416 13128,5416 L 15668,5416 C 15986,5416 16304,5098 16304,4780 L 16304,2240 C 16304,1922 15986,1605 15668,1605 L 13128,1605 Z"/>
       <path fill="none" stroke="rgb(52,101,164)" d="M 12493,1605 L 12493,1605 Z"/>
       <path fill="none" stroke="rgb(52,101,164)" d="M 16304,5416 L 16304,5416 Z"/>
       <text class="TextShape"><tspan class="TextParagraph" font-family="Liberation Sans, sans-serif" font-size="635px" font-weight="400"><tspan class="TextPosition" x="13729" y="3731"><tspan fill="rgb(255,255,255)" stroke="none">CPU</tspan></tspan></tspan></text>
      </g>
     </g>
     <g class="com.sun.star.drawing.CustomShape">
      <g id="id4">
       <path fill="rgb(204,0,0)" stroke="none" d="M 13128,15538 C 12810,15538 12493,15855 12493,16173 L 12493,18713 C 12493,19031 12810,19349 13128,19349 L 15668,19349 C 15986,19349 16304,19031 16304,18713 L 16304,16173 C 16304,15855 15986,15538 15668,15538 L 13128,15538 Z M 12493,15538 L 12493,15538 Z M 16304,19349 L 16304,19349 Z"/>
       <path fill="none" stroke="rgb(52,101,164)" d="M 13128,15538 C 12810,15538 12493,15855 12493,16173 L 12493,18713 C 12493,19031 12810,19349 13128,19349 L 15668,19349 C 15986,19349 16304,19031 16304,18713 L 16304,16173 C 16304,15855 15986,15538 15668,15538 L 13128,15538 Z"/>
       <path fill="none" stroke="rgb(52,101,164)" d="M 12493,15538 L 12493,15538 Z"/>
       <path fill="none" stroke="rgb(52,101,164)" d="M 16304,19349 L 16304,19349 Z"/>
       <text class="TextShape"><tspan class="TextParagraph" font-family="Liberation Sans, sans-serif" font-size="635px" font-weight="400"><tspan class="TextPosition" x="13729" y="17664"><tspan fill="rgb(255,255,255)" stroke="none">CPU</tspan></tspan></tspan></text>
      </g>
     </g>
     <g class="com.sun.star.drawing.CustomShape">
      <g id="id5">
       <path fill="rgb(204,0,0)" stroke="none" d="M 4461,8535 C 4143,8535 3826,8852 3826,9170 L 3826,11710 C 3826,12028 4143,12346 4461,12346 L 7001,12346 C 7319,12346 7637,12028 7637,11710 L 7637,9170 C 7637,8852 7319,8535 7001,8535 L 4461,8535 Z M 3826,8535 L 3826,8535 Z M 7637,12346 L 7637,12346 Z"/>
       <path fill="none" stroke="rgb(52,101,164)" d="M 4461,8535 C 4143,8535 3826,8852 3826,9170 L 3826,11710 C 3826,12028 4143,12346 4461,12346 L 7001,12346 C 7319,12346 7637,12028 7637,11710 L 7637,9170 C 7637,8852 7319,8535 7001,8535 L 4461,8535 Z"/>
       <path fill="none" stroke="rgb(52,101,164)" d="M 3826,8535 L 3826,8535 Z"/>
       <path fill="none" stroke="rgb(52,101,164)" d="M 7637,12346 L 7637,12346 Z"/>
       <text class="TextShape"><tspan class="TextParagraph" font-family="Liberation Sans, sans-serif" font-size="635px" font-weight="400"><tspan class="TextPosition" x="5062" y="10661"><tspan fill="rgb(255,255,255)" stroke="none">CPU</tspan></tspan></tspan></text>
      </g>
     </g>
     <g class="com.sun.star.drawing.CustomShape">
      <g id="id6">
       <path fill="rgb(204,0,0)" stroke="none" d="M 22050,8535 C 21732,8535 21415,8852 21415,9170 L 21415,11710 C 21415,12028 21732,12346 22050,12346 L 24590,12346 C 24908,12346 25226,12028 25226,11710 L 25226,9170 C 25226,8852 24908,8535 24590,8535 L 22050,8535 Z M 21415,8535 L 21415,8535 Z M 25226,12346 L 25226,12346 Z"/>
       <path fill="none" stroke="rgb(52,101,164)" d="M 22050,8535 C 21732,8535 21415,8852 21415,9170 L 21415,11710 C 21415,12028 21732,12346 22050,12346 L 24590,12346 C 24908,12346 25226,12028 25226,11710 L 25226,9170 C 25226,8852 24908,8535 24590,8535 L 22050,8535 Z"/>
       <path fill="none" stroke="rgb(52,101,164)" d="M 21415,8535 L 21415,8535 Z"/>
       <path fill="none" stroke="rgb(52,101,164)" d="M 25226,12346 L 25226,12346 Z"/>
       <text class="TextShape"><tspan class="TextParagraph" font-family="Liberation Sans, sans-serif" font-size="635px" font-weight="400"><tspan class="TextPosition" x="22651" y="10661"><tspan fill="rgb(255,255,255)" stroke="none">CPU</tspan></tspan></tspan></text>
      </g>
     </g>
     <g class="com.sun.star.drawing.CustomShape">
      <g id="id7">
       <path fill="rgb(114,159,207)" stroke="none" d="M 11815,8090 C 11423,8090 11032,8481 11032,8873 L 11032,12006 C 11032,12398 11423,12790 11815,12790 L 16980,12790 C 17372,12790 17764,12398 17764,12006 L 17764,8873 C 17764,8481 17372,8090 16980,8090 L 11815,8090 Z M 11032,8090 L 11032,8090 Z M 17764,12790 L 17764,12790 Z"/>
       <path fill="none" stroke="rgb(52,101,164)" d="M 11815,8090 C 11423,8090 11032,8481 11032,8873 L 11032,12006 C 11032,12398 11423,12790 11815,12790 L 16980,12790 C 17372,12790 17764,12398 17764,12006 L 17764,8873 C 17764,8481 17372,8090 16980,8090 L 11815,8090 Z"/>
       <path fill="none" stroke="rgb(52,101,164)" d="M 11032,8090 L 11032,8090 Z"/>
       <path fill="none" stroke="rgb(52,101,164)" d="M 17764,12790 L 17764,12790 Z"/>
       <text class="TextShape"><tspan class="TextParagraph" font-family="Liberation Sans, sans-serif" font-size="635px" font-weight="400"><tspan class="TextPosition" x="13206" y="10660"><tspan fill="rgb(0,0,0)" stroke="none">PAMIĘĆ</tspan></tspan></tspan></text>
      </g>
     </g>
     <g class="com.sun.star.drawing.ConnectorShape">
      <g id="id8">
       <path fill="none" stroke="rgb(0,0,0)" stroke-width="254" stroke-linejoin="round" d="M 8609,10440 L 10060,10440"/>
       <path fill="rgb(0,0,0)" stroke="none" d="M 7636,10440 L 8655,10780 8655,10101 7636,10440 Z"/>
       <path fill="rgb(0,0,0)" stroke="none" d="M 11033,10440 L 10015,10101 10015,10780 11033,10440 Z"/>
      </g>
     </g>
     <g class="com.sun.star.drawing.ConnectorShape">
      <g id="id9">
       <path fill="none" stroke="rgb(0,0,0)" stroke-width="254" stroke-linejoin="round" d="M 14398,6388 L 14398,7118"/>
       <path fill="rgb(0,0,0)" stroke="none" d="M 14398,5415 L 14059,6434 14738,6434 14398,5415 Z"/>
       <path fill="rgb(0,0,0)" stroke="none" d="M 14398,8091 L 14738,7073 14059,7073 14398,8091 Z"/>
      </g>
     </g>
     <g class="com.sun.star.drawing.ConnectorShape">
      <g id="id10">
       <path fill="none" stroke="rgb(0,0,0)" stroke-width="254" stroke-linejoin="round" d="M 20442,10440 L 18737,10440"/>
       <path fill="rgb(0,0,0)" stroke="none" d="M 21415,10440 L 20397,10101 20397,10780 21415,10440 Z"/>
       <path fill="rgb(0,0,0)" stroke="none" d="M 17764,10440 L 18783,10780 18783,10101 17764,10440 Z"/>
      </g>
     </g>
     <g class="com.sun.star.drawing.ConnectorShape">
      <g id="id11">
       <path fill="none" stroke="rgb(0,0,0)" stroke-width="254" stroke-linejoin="round" d="M 14398,14565 L 14398,13763"/>
       <path fill="rgb(0,0,0)" stroke="none" d="M 14398,15538 L 14738,14520 14059,14520 14398,15538 Z"/>
       <path fill="rgb(0,0,0)" stroke="none" d="M 14398,12790 L 14059,13809 14738,13809 14398,12790 Z"/>
      </g>
     </g>
    </g>
   </g>
  </g>
 </g>
</svg>