<?xml version="1.0" encoding="UTF-8"?>
<!DOCTYPE svg PUBLIC "-//W3C//DTD SVG 1.1//EN" "http://www.w3.org/Graphics/SVG/1.1/DTD/svg11.dtd">
<svg width="160mm" height="90mm" viewBox="0 0 16000 9000" version="1.1" baseProfile="tiny" xmlns="http://www.w3.org/2000/svg" stroke-width="28.222" stroke-linejoin="round" xml:space="preserve">
 <path fill="rgb(114,159,207)" stroke="none" d="M 1,-33 L 15998,-33 15998,8965 1,8965 1,-33 Z"/>
 <path fill="none" stroke="rgb(52,101,164)" stroke-linejoin="round" d="M 1,-33 L 15998,-33 15998,8965 1,8965 1,-33 Z"/>
 <path fill="rgb(255,255,255)" stroke="none" d="M 8000,8965 L 1,8965 1,-33 15998,-33 15998,8965 8000,8965 Z"/>
 <path fill="none" stroke="rgb(179,179,179)" stroke-linejoin="round" d="M 6951,7757 L 1895,7757 1895,1303 12007,1303 12007,7757 6951,7757 Z"/>
 <path fill="none" stroke="rgb(179,179,179)" stroke-linejoin="round" d="M 12007,7756 L 1895,7756"/>
 <path fill="none" stroke="rgb(179,179,179)" stroke-linejoin="round" d="M 12007,7038 L 1895,7038"/>
 <path fill="none" stroke="rgb(179,179,179)" stroke-linejoin="round" d="M 12007,6321 L 1895,6321"/>
 <path fill="none" stroke="rgb(179,179,179)" stroke-linejoin="round" d="M 12007,5604 L 1895,5604"/>
 <path fill="none" stroke="rgb(179,179,179)" stroke-linejoin="round" d="M 12007,4887 L 1895,4887"/>
 <path fill="none" stroke="rgb(179,179,179)" stroke-linejoin="round" d="M 12007,4170 L 1895,4170"/>
 <path fill="none" stroke="rgb(179,179,179)" stroke-linejoin="round" d="M 12007,3453 L 1895,3453"/>
 <path fill="none" stroke="rgb(179,179,179)" stroke-linejoin="round" d="M 12007,2736 L 1895,2736"/>
 <path fill="none" stroke="rgb(179,179,179)" stroke-linejoin="round" d="M 12007,2019 L 1895,2019"/>
 <path fill="none" stroke="rgb(179,179,179)" stroke-linejoin="round" d="M 12007,1302 L 1895,1302"/>
 <path fill="none" stroke="rgb(179,179,179)" stroke-linejoin="round" d="M 1895,7906 L 1895,7756"/>
 <path fill="none" stroke="rgb(179,179,179)" stroke-linejoin="round" d="M 3018,7906 L 3018,7756"/>
 <path fill="none" stroke="rgb(179,179,179)" stroke-linejoin="round" d="M 4142,7906 L 4142,7756"/>
 <path fill="none" stroke="rgb(179,179,179)" stroke-linejoin="round" d="M 5266,7906 L 5266,7756"/>
 <path fill="none" stroke="rgb(179,179,179)" stroke-linejoin="round" d="M 6389,7906 L 6389,7756"/>
 <path fill="none" stroke="rgb(179,179,179)" stroke-linejoin="round" d="M 7513,7906 L 7513,7756"/>
 <path fill="none" stroke="rgb(179,179,179)" stroke-linejoin="round" d="M 8636,7906 L 8636,7756"/>
 <path fill="none" stroke="rgb(179,179,179)" stroke-linejoin="round" d="M 9759,7906 L 9759,7756"/>
 <path fill="none" stroke="rgb(179,179,179)" stroke-linejoin="round" d="M 10883,7906 L 10883,7756"/>
 <path fill="none" stroke="rgb(179,179,179)" stroke-linejoin="round" d="M 12007,7906 L 12007,7756"/>
 <path fill="none" stroke="rgb(179,179,179)" stroke-linejoin="round" d="M 1895,7756 L 12007,7756"/>
 <path fill="none" stroke="rgb(179,179,179)" stroke-linejoin="round" d="M 1745,7756 L 1895,7756"/>
 <path fill="none" stroke="rgb(179,179,179)" stroke-linejoin="round" d="M 1745,7038 L 1895,7038"/>
 <path fill="none" stroke="rgb(179,179,179)" stroke-linejoin="round" d="M 1745,6321 L 1895,6321"/>
 <path fill="none" stroke="rgb(179,179,179)" stroke-linejoin="round" d="M 1745,5604 L 1895,5604"/>
 <path fill="none" stroke="rgb(179,179,179)" stroke-linejoin="round" d="M 1745,4887 L 1895,4887"/>
 <path fill="none" stroke="rgb(179,179,179)" stroke-linejoin="round" d="M 1745,4170 L 1895,4170"/>
 <path fill="none" stroke="rgb(179,179,179)" stroke-linejoin="round" d="M 1745,3453 L 1895,3453"/>
 <path fill="none" stroke="rgb(179,179,179)" stroke-linejoin="round" d="M 1745,2736 L 1895,2736"/>
 <path fill="none" stroke="rgb(179,179,179)" stroke-linejoin="round" d="M 1745,2019 L 1895,2019"/>
 <path fill="none" stroke="rgb(179,179,179)" stroke-linejoin="round" d="M 1745,1302 L 1895,1302"/>
 <path fill="none" stroke="rgb(179,179,179)" stroke-linejoin="round" d="M 1895,7756 L 1895,1302"/>
 <path fill="none" stroke="rgb(0,69,134)" stroke-width="105" stroke-linejoin="round" d="M 1895,7755 L 1951,7755 2007,7755 2063,7755 2119,7755 2175,7755 2232,7755 2288,7755 2344,7755 2400,7755 2456,7755 2513,7755 2569,7755 2625,7755 2681,7755 2737,7755 2793,7755 2850,7755 2906,7755 2962,7754 3018,7754 3074,7754 3131,7754 3187,7754 3243,7754 3299,7753 3355,7753 3411,7753 3468,7753 3524,7752 3580,7752 3636,7751 3692,7751 3749,7750 3805,7750 3861,7749 3917,7749 3973,7748 4029,7747 4086,7747 4142,7746 4198,7745 4254,7744 4310,7743 4367,7742 4423,7741 4479,7739 4535,7738 4591,7737 4647,7735 4704,7733 4760,7732 4816,7730 4872,7728 4928,7726 4985,7724 5041,7722 5097,7719 5153,7717 5209,7714 5266,7711 5322,7708 5378,7705 5434,7702 5490,7699 5546,7695 5603,7691 5659,7687 5715,7683 5771,7679 5827,7674 5884,7669 5940,7664 5996,7659 6052,7653 6108,7647 6164,7641 6221,7635 6277,7628 6333,7621 6389,7613 6445,7606 6502,7597 6558,7589 6614,7580 6670,7571 6726,7562 6782,7552 6839,7541 6895,7530 6951,7519 7007,7508 7063,7495 7120,7483 7176,7470 7232,7456 7288,7442 7344,7427 7400,7412 7457,7396 7513,7380 7569,7363 7625,7346 7681,7327 7738,7309 7794,7289 7850,7269 7906,7248 7962,7226 8017,7204 8074,7180 8130,7156 8186,7131 8242,7105 8298,7078 8355,7050 8411,7021 8467,6991 8523,6960 8579,6928 8636,6894 8692,6860 8748,6824 8804,6787 8860,6749 8916,6710 8973,6670 9029,6628 9085,6585 9141,6541 9197,6495 9254,6448 9310,6400 9366,6351 9422,6300 9478,6248 9534,6194 9591,6139 9647,6082 9703,6025 9759,5965 9815,5904 9872,5842 9928,5778 9984,5712 10040,5644 10096,5575 10152,5503 10209,5429 10265,5353 10321,5274 10377,5193 10433,5109 10490,5023 10546,4933 10602,4841 10658,4746 10714,4648 10770,4546 10827,4443 10883,4335 10939,4223 10995,4108 11051,3990 11108,3869 11164,3745 11220,3618 11276,3489 11332,3358 11388,3225 11445,3089 11501,2952 11557,2813 11613,2673 11669,2532 11726,2390 11782,2246 11838,2103 11894,1958 11950,1813 12007,1668"/>
 <path fill="none" stroke="rgb(255,66,14)" stroke-width="105" stroke-linejoin="round" d="M 1895,7755 L 1951,7755 2007,7755 2063,7755 2119,7755 2175,7755 2232,7755 2288,7755 2344,7755 2400,7755 2456,7755 2513,7755 2569,7755 2625,7755 2681,7755 2737,7755 2793,7755 2850,7755 2906,7755 2962,7755 3018,7754 3074,7754 3131,7754 3187,7754 3243,7754 3299,7754 3355,7754 3411,7753 3468,7753 3524,7753 3580,7753 3636,7752 3692,7752 3749,7752 3805,7751 3861,7751 3917,7750 3973,7750 4029,7749 4086,7749 4142,7748 4198,7748 4254,7747 4310,7746 4367,7746 4423,7745 4479,7744 4535,7743 4591,7742 4647,7741 4704,7740 4760,7739 4816,7738 4872,7736 4928,7735 4985,7734 5041,7732 5097,7731 5153,7729 5209,7727 5266,7725 5322,7724 5378,7722 5434,7719 5490,7717 5546,7715 5603,7713 5659,7710 5715,7707 5771,7705 5827,7702 5884,7699 5940,7695 5996,7692 6052,7688 6108,7685 6164,7681 6221,7677 6277,7673 6333,7668 6389,7664 6445,7659 6502,7654 6558,7649 6614,7643 6670,7638 6726,7632 6782,7626 6839,7619 6895,7613 6951,7606 7007,7599 7063,7591 7120,7584 7176,7576 7232,7567 7288,7559 7344,7550 7400,7541 7457,7531 7513,7522 7569,7511 7625,7501 7681,7490 7738,7479 7794,7467 7850,7455 7906,7443 7962,7430 8017,7416 8074,7402 8130,7388 8186,7373 8242,7358 8298,7342 8355,7326 8411,7309 8467,7291 8523,7273 8579,7254 8636,7235 8692,7215 8748,7194 8804,7173 8860,7151 8916,7129 8973,7105 9029,7082 9085,7057 9141,7032 9197,7006 9254,6979 9310,6952 9366,6924 9422,6895 9478,6866 9534,6836 9591,6805 9647,6774 9703,6741 9759,6708 9815,6675 9872,6640 9928,6605 9984,6568 10040,6531 10096,6493 10152,6454 10209,6413 10265,6371 10321,6328 10377,6284 10433,6239 10490,6192 10546,6143 10602,6093 10658,6042 10714,5988 10770,5933 10827,5877 10883,5818 10939,5758 10995,5696 11051,5632 11108,5566 11164,5499 11220,5431 11276,5362 11332,5291 11388,5219 11445,5146 11501,5072 11557,4997 11613,4922 11669,4845 11726,4769 11782,4692 11838,4614 11894,4536 11950,4459 12007,4381"/>
 <text class="TextShape"><tspan class="TextParagraph" font-family="Arial" font-size="353px" font-weight="400"><tspan class="TextPosition" x="1802" y="8324"><tspan fill="rgb(60,60,60)" stroke="none">5</tspan></tspan></tspan></text>
 <text class="TextShape"><tspan class="TextParagraph" font-family="Arial" font-size="353px" font-weight="400"><tspan class="TextPosition" x="2833" y="8324"><tspan fill="rgb(60,60,60)" stroke="none">10</tspan></tspan></tspan></text>
 <text class="TextShape"><tspan class="TextParagraph" font-family="Arial" font-size="353px" font-weight="400"><tspan class="TextPosition" x="3957" y="8324"><tspan fill="rgb(60,60,60)" stroke="none">15</tspan></tspan></tspan></text>
 <text class="TextShape"><tspan class="TextParagraph" font-family="Arial" font-size="353px" font-weight="400"><tspan class="TextPosition" x="5081" y="8324"><tspan fill="rgb(60,60,60)" stroke="none">20</tspan></tspan></tspan></text>
 <text class="TextShape"><tspan class="TextParagraph" font-family="Arial" font-size="353px" font-weight="400"><tspan class="TextPosition" x="6204" y="8324"><tspan fill="rgb(60,60,60)" stroke="none">25</tspan></tspan></tspan></text>
 <text class="TextShape"><tspan class="TextParagraph" font-family="Arial" font-size="353px" font-weight="400"><tspan class="TextPosition" x="7328" y="8324"><tspan fill="rgb(60,60,60)" stroke="none">30</tspan></tspan></tspan></text>
 <text class="TextShape"><tspan class="TextParagraph" font-family="Arial" font-size="353px" font-weight="400"><tspan class="TextPosition" x="8452" y="8324"><tspan fill="rgb(60,60,60)" stroke="none">35</tspan></tspan></tspan></text>
 <text class="TextShape"><tspan class="TextParagraph" font-family="Arial" font-size="353px" font-weight="400"><tspan class="TextPosition" x="9575" y="8324"><tspan fill="rgb(60,60,60)" stroke="none">40</tspan></tspan></tspan></text>
 <text class="TextShape"><tspan class="TextParagraph" font-family="Arial" font-size="353px" font-weight="400"><tspan class="TextPosition" x="10699" y="8324"><tspan fill="rgb(60,60,60)" stroke="none">45</tspan></tspan></tspan></text>
 <text class="TextShape"><tspan class="TextParagraph" font-family="Arial" font-size="353px" font-weight="400"><tspan class="TextPosition" x="11823" y="8324"><tspan fill="rgb(60,60,60)" stroke="none">50</tspan></tspan></tspan></text>
 <text class="TextShape"><tspan class="TextParagraph" font-family="Arial" font-size="353px" font-weight="400"><tspan class="TextPosition" x="1460" y="7877"><tspan fill="rgb(60,60,60)" stroke="none">0</tspan></tspan></tspan></text>
 <text class="TextShape"><tspan class="TextParagraph" font-family="Arial" font-size="353px" font-weight="400"><tspan class="TextPosition" x="1089" y="7159"><tspan fill="rgb(60,60,60)" stroke="none">200</tspan></tspan></tspan></text>
 <text class="TextShape"><tspan class="TextParagraph" font-family="Arial" font-size="353px" font-weight="400"><tspan class="TextPosition" x="1089" y="6442"><tspan fill="rgb(60,60,60)" stroke="none">400</tspan></tspan></tspan></text>
 <text class="TextShape"><tspan class="TextParagraph" font-family="Arial" font-size="353px" font-weight="400"><tspan class="TextPosition" x="1089" y="5725"><tspan fill="rgb(60,60,60)" stroke="none">600</tspan></tspan></tspan></text>
 <text class="TextShape"><tspan class="TextParagraph" font-family="Arial" font-size="353px" font-weight="400"><tspan class="TextPosition" x="1089" y="5008"><tspan fill="rgb(60,60,60)" stroke="none">800</tspan></tspan></tspan></text>
 <text class="TextShape"><tspan class="TextParagraph" font-family="Arial" font-size="353px" font-weight="400"><tspan class="TextPosition" x="904" y="4290"><tspan fill="rgb(60,60,60)" stroke="none">1000</tspan></tspan></tspan></text>
 <text class="TextShape"><tspan class="TextParagraph" font-family="Arial" font-size="353px" font-weight="400"><tspan class="TextPosition" x="904" y="3573"><tspan fill="rgb(60,60,60)" stroke="none">1200</tspan></tspan></tspan></text>
 <text class="TextShape"><tspan class="TextParagraph" font-family="Arial" font-size="353px" font-weight="400"><tspan class="TextPosition" x="904" y="2856"><tspan fill="rgb(60,60,60)" stroke="none">1400</tspan></tspan></tspan></text>
 <text class="TextShape"><tspan class="TextParagraph" font-family="Arial" font-size="353px" font-weight="400"><tspan class="TextPosition" x="904" y="2139"><tspan fill="rgb(60,60,60)" stroke="none">1600</tspan></tspan></tspan></text>
 <text class="TextShape"><tspan class="TextParagraph" font-family="Arial" font-size="353px" font-weight="400"><tspan class="TextPosition" x="904" y="1422"><tspan fill="rgb(60,60,60)" stroke="none">1800</tspan></tspan></tspan></text>
 <path fill="none" stroke="rgb(0,69,134)" stroke-width="105" stroke-linejoin="round" d="M 12144,2816 L 12944,2816"/>
 <path fill="none" stroke="rgb(255,66,14)" stroke-width="105" stroke-linejoin="round" d="M 12144,5670 L 12944,5670"/>
 <text class="TextShape"><tspan class="TextParagraph" font-family="Arial" font-size="353px" font-weight="400"><tspan class="TextPosition" x="13044" y="2959"><tspan fill="rgb(60,60,60)" stroke="none">Implementacja </tspan></tspan><tspan class="TextPosition" x="13044" y="3356"><tspan fill="rgb(60,60,60)" stroke="none">macierzowa, </tspan></tspan><tspan class="TextPosition" x="13044" y="3753"><tspan fill="rgb(60,60,60)" stroke="none">metoda 2</tspan></tspan></tspan></text>
 <text class="TextShape"><tspan class="TextParagraph" font-family="Arial" font-size="353px" font-weight="400"><tspan class="TextPosition" x="13044" y="5813"><tspan fill="rgb(60,60,60)" stroke="none">Implementacja </tspan></tspan><tspan class="TextPosition" x="13044" y="6210"><tspan fill="rgb(60,60,60)" stroke="none">macierzowa, </tspan></tspan><tspan class="TextPosition" x="13044" y="6607"><tspan fill="rgb(60,60,60)" stroke="none">metoda 1</tspan></tspan></tspan></text>
 <text class="TextShape"><tspan class="TextParagraph" font-family="Times New Roman" font-size="423px" font-weight="400"><tspan class="TextPosition" x="12458" y="8009"><tspan fill="rgb(0,0,0)" stroke="none">N</tspan></tspan></tspan></text>
 <text class="TextShape"><tspan class="TextParagraph" font-family="Times New Roman" font-size="423px" font-weight="400"><tspan class="TextPosition" x="996" y="498"><tspan fill="rgb(0,0,0)" stroke="none">t[s]</tspan></tspan></tspan></text>
</svg>