<?xml version="1.0" encoding="UTF-8"?>
<!DOCTYPE svg PUBLIC "-//W3C//DTD SVG 1.1//EN" "http://www.w3.org/Graphics/SVG/1.1/DTD/svg11.dtd">
<svg width="160mm" height="90mm" viewBox="0 0 16000 9000" version="1.1" baseProfile="tiny" xmlns="http://www.w3.org/2000/svg" stroke-width="28.222" stroke-linejoin="round" xml:space="preserve">
 <path fill="rgb(114,159,207)" stroke="none" d="M 1,-44 L 16002,-44 16002,8959 1,8959 1,-44 Z"/>
 <path fill="none" stroke="rgb(52,101,164)" stroke-linejoin="round" d="M 1,-44 L 16002,-44 16002,8959 1,8959 1,-44 Z"/>
 <path fill="rgb(255,255,255)" stroke="none" d="M 8002,8959 L 1,8959 1,-44 16002,-44 16002,8959 8002,8959 Z"/>
 <path fill="none" stroke="rgb(179,179,179)" stroke-linejoin="round" d="M 6919,7748 L 1891,7748 1891,1289 11947,1289 11947,7748 6919,7748 Z"/>
 <path fill="none" stroke="rgb(179,179,179)" stroke-linejoin="round" d="M 11947,7747 L 1891,7747"/>
 <path fill="none" stroke="rgb(179,179,179)" stroke-linejoin="round" d="M 11947,7029 L 1891,7029"/>
 <path fill="none" stroke="rgb(179,179,179)" stroke-linejoin="round" d="M 11947,6311 L 1891,6311"/>
 <path fill="none" stroke="rgb(179,179,179)" stroke-linejoin="round" d="M 11947,5593 L 1891,5593"/>
 <path fill="none" stroke="rgb(179,179,179)" stroke-linejoin="round" d="M 11947,4875 L 1891,4875"/>
 <path fill="none" stroke="rgb(179,179,179)" stroke-linejoin="round" d="M 11947,4159 L 1891,4159"/>
 <path fill="none" stroke="rgb(179,179,179)" stroke-linejoin="round" d="M 11947,3441 L 1891,3441"/>
 <path fill="none" stroke="rgb(179,179,179)" stroke-linejoin="round" d="M 11947,2723 L 1891,2723"/>
 <path fill="none" stroke="rgb(179,179,179)" stroke-linejoin="round" d="M 11947,2005 L 1891,2005"/>
 <path fill="none" stroke="rgb(179,179,179)" stroke-linejoin="round" d="M 11947,1288 L 1891,1288"/>
 <path fill="none" stroke="rgb(179,179,179)" stroke-linejoin="round" d="M 1891,7897 L 1891,7747"/>
 <path fill="none" stroke="rgb(179,179,179)" stroke-linejoin="round" d="M 3008,7897 L 3008,7747"/>
 <path fill="none" stroke="rgb(179,179,179)" stroke-linejoin="round" d="M 4125,7897 L 4125,7747"/>
 <path fill="none" stroke="rgb(179,179,179)" stroke-linejoin="round" d="M 5243,7897 L 5243,7747"/>
 <path fill="none" stroke="rgb(179,179,179)" stroke-linejoin="round" d="M 6360,7897 L 6360,7747"/>
 <path fill="none" stroke="rgb(179,179,179)" stroke-linejoin="round" d="M 7478,7897 L 7478,7747"/>
 <path fill="none" stroke="rgb(179,179,179)" stroke-linejoin="round" d="M 8594,7897 L 8594,7747"/>
 <path fill="none" stroke="rgb(179,179,179)" stroke-linejoin="round" d="M 9712,7897 L 9712,7747"/>
 <path fill="none" stroke="rgb(179,179,179)" stroke-linejoin="round" d="M 10829,7897 L 10829,7747"/>
 <path fill="none" stroke="rgb(179,179,179)" stroke-linejoin="round" d="M 11947,7897 L 11947,7747"/>
 <path fill="none" stroke="rgb(179,179,179)" stroke-linejoin="round" d="M 1891,7747 L 11947,7747"/>
 <path fill="none" stroke="rgb(179,179,179)" stroke-linejoin="round" d="M 1741,7747 L 1891,7747"/>
 <path fill="none" stroke="rgb(179,179,179)" stroke-linejoin="round" d="M 1741,7029 L 1891,7029"/>
 <path fill="none" stroke="rgb(179,179,179)" stroke-linejoin="round" d="M 1741,6311 L 1891,6311"/>
 <path fill="none" stroke="rgb(179,179,179)" stroke-linejoin="round" d="M 1741,5593 L 1891,5593"/>
 <path fill="none" stroke="rgb(179,179,179)" stroke-linejoin="round" d="M 1741,4875 L 1891,4875"/>
 <path fill="none" stroke="rgb(179,179,179)" stroke-linejoin="round" d="M 1741,4159 L 1891,4159"/>
 <path fill="none" stroke="rgb(179,179,179)" stroke-linejoin="round" d="M 1741,3441 L 1891,3441"/>
 <path fill="none" stroke="rgb(179,179,179)" stroke-linejoin="round" d="M 1741,2723 L 1891,2723"/>
 <path fill="none" stroke="rgb(179,179,179)" stroke-linejoin="round" d="M 1741,2005 L 1891,2005"/>
 <path fill="none" stroke="rgb(179,179,179)" stroke-linejoin="round" d="M 1741,1288 L 1891,1288"/>
 <path fill="none" stroke="rgb(179,179,179)" stroke-linejoin="round" d="M 1891,7747 L 1891,1288"/>
 <path fill="none" stroke="rgb(0,69,134)" stroke-width="105" stroke-linejoin="round" d="M 1891,7746 L 1946,7746 2002,7746 2058,7746 2114,7746 2170,7746 2226,7746 2282,7746 2337,7746 2393,7746 2449,7746 2505,7746 2561,7746 2617,7746 2673,7746 2729,7746 2784,7746 2840,7746 2896,7746 2952,7746 3008,7746 3064,7746 3120,7745 3176,7745 3231,7745 3287,7745 3343,7745 3399,7745 3455,7744 3511,7744 3567,7744 3623,7744 3678,7743 3734,7743 3790,7743 3846,7742 3902,7742 3958,7741 4014,7741 4070,7740 4125,7740 4181,7739 4237,7738 4293,7738 4349,7737 4405,7736 4461,7735 4516,7734 4572,7733 4628,7732 4684,7731 4740,7729 4796,7728 4852,7726 4908,7725 4963,7723 5019,7721 5075,7719 5131,7717 5187,7715 5243,7713 5299,7711 5355,7708 5410,7706 5466,7703 5522,7700 5578,7697 5634,7694 5690,7690 5746,7686 5802,7683 5857,7679 5913,7674 5969,7670 6025,7665 6081,7661 6137,7655 6193,7650 6249,7645 6304,7639 6360,7633 6416,7626 6472,7620 6528,7613 6584,7605 6640,7598 6696,7590 6751,7582 6807,7573 6863,7564 6919,7555 6975,7545 7031,7535 7087,7524 7142,7514 7198,7502 7254,7490 7310,7478 7366,7465 7422,7452 7478,7439 7534,7424 7589,7410 7645,7395 7701,7379 7757,7362 7813,7345 7869,7327 7925,7309 7981,7290 8035,7270 8091,7249 8147,7227 8203,7205 8259,7181 8315,7157 8371,7132 8427,7105 8482,7078 8538,7050 8594,7020 8650,6990 8706,6958 8762,6925 8818,6892 8874,6856 8929,6820 8985,6783 9041,6744 9097,6704 9153,6663 9209,6621 9265,6578 9321,6533 9376,6487 9432,6440 9488,6391 9544,6341 9600,6290 9656,6237 9712,6183 9767,6128 9823,6071 9879,6013 9935,5953 9991,5891 10047,5827 10103,5762 10159,5694 10214,5624 10270,5552 10326,5478 10382,5401 10438,5321 10494,5239 10550,5154 10606,5067 10661,4976 10717,4882 10773,4785 10829,4685 10885,4581 10941,4475 10997,4366 11053,4254 11108,4138 11164,4021 11220,3900 11276,3778 11332,3654 11388,3528 11444,3400 11500,3271 11555,3140 11611,3008 11667,2875 11723,2741 11779,2607 11835,2472 11891,2337 11947,2202"/>
 <path fill="none" stroke="rgb(255,66,14)" stroke-width="105" stroke-linejoin="round" d="M 1891,7746 L 1946,7746 2002,7746 2058,7746 2114,7746 2170,7746 2226,7746 2282,7746 2337,7746 2393,7746 2449,7746 2505,7746 2561,7746 2617,7746 2673,7746 2729,7746 2784,7746 2840,7746 2896,7746 2952,7746 3008,7746 3064,7746 3120,7746 3176,7746 3231,7746 3287,7746 3343,7746 3399,7746 3455,7746 3511,7746 3567,7746 3623,7746 3678,7745 3734,7745 3790,7745 3846,7745 3902,7745 3958,7745 4014,7745 4070,7745 4125,7745 4181,7745 4237,7744 4293,7744 4349,7744 4405,7744 4461,7744 4516,7744 4572,7744 4628,7743 4684,7743 4740,7743 4796,7743 4852,7743 4908,7742 4963,7742 5019,7742 5075,7742 5131,7742 5187,7741 5243,7741 5299,7741 5355,7741 5410,7740 5466,7740 5522,7740 5578,7739 5634,7739 5690,7739 5746,7738 5802,7738 5857,7738 5913,7737 5969,7737 6025,7736 6081,7736 6137,7735 6193,7735 6249,7734 6304,7734 6360,7733 6416,7733 6472,7732 6528,7732 6584,7731 6640,7730 6696,7730 6751,7729 6807,7728 6863,7728 6919,7727 6975,7726 7031,7725 7087,7725 7142,7724 7198,7723 7254,7722 7310,7721 7366,7720 7422,7719 7478,7718 7534,7717 7589,7716 7645,7715 7701,7714 7757,7713 7813,7712 7869,7710 7925,7709 7981,7708 8035,7707 8091,7705 8147,7704 8203,7703 8259,7701 8315,7700 8371,7698 8427,7697 8482,7695 8538,7693 8594,7692 8650,7690 8706,7688 8762,7686 8818,7684 8874,7682 8929,7680 8985,7678 9041,7676 9097,7674 9153,7672 9209,7669 9265,7667 9321,7665 9376,7662 9432,7660 9488,7657 9544,7655 9600,7652 9656,7650 9712,7647 9767,7644 9823,7641 9879,7639 9935,7636 9991,7633 10047,7630 10103,7626 10159,7623 10214,7620 10270,7617 10326,7613 10382,7610 10438,7606 10494,7603 10550,7599 10606,7595 10661,7591 10717,7587 10773,7583 10829,7579 10885,7575 10941,7570 10997,7566 11053,7561 11108,7557 11164,7552 11220,7547 11276,7542 11332,7538 11388,7533 11444,7528 11500,7522 11555,7517 11611,7512 11667,7507 11723,7502 11779,7497 11835,7491 11891,7486 11947,7481"/>
 <text class="TextShape"><tspan class="TextParagraph" font-family="Arial" font-size="353px" font-weight="400"><tspan class="TextPosition" x="1798" y="8315"><tspan fill="rgb(60,60,60)" stroke="none">5</tspan></tspan></tspan></text>
 <text class="TextShape"><tspan class="TextParagraph" font-family="Arial" font-size="353px" font-weight="400"><tspan class="TextPosition" x="2823" y="8315"><tspan fill="rgb(60,60,60)" stroke="none">10</tspan></tspan></tspan></text>
 <text class="TextShape"><tspan class="TextParagraph" font-family="Arial" font-size="353px" font-weight="400"><tspan class="TextPosition" x="3940" y="8315"><tspan fill="rgb(60,60,60)" stroke="none">15</tspan></tspan></tspan></text>
 <text class="TextShape"><tspan class="TextParagraph" font-family="Arial" font-size="353px" font-weight="400"><tspan class="TextPosition" x="5058" y="8315"><tspan fill="rgb(60,60,60)" stroke="none">20</tspan></tspan></tspan></text>
 <text class="TextShape"><tspan class="TextParagraph" font-family="Arial" font-size="353px" font-weight="400"><tspan class="TextPosition" x="6175" y="8315"><tspan fill="rgb(60,60,60)" stroke="none">25</tspan></tspan></tspan></text>
 <text class="TextShape"><tspan class="TextParagraph" font-family="Arial" font-size="353px" font-weight="400"><tspan class="TextPosition" x="7293" y="8315"><tspan fill="rgb(60,60,60)" stroke="none">30</tspan></tspan></tspan></text>
 <text class="TextShape"><tspan class="TextParagraph" font-family="Arial" font-size="353px" font-weight="400"><tspan class="TextPosition" x="8410" y="8315"><tspan fill="rgb(60,60,60)" stroke="none">35</tspan></tspan></tspan></text>
 <text class="TextShape"><tspan class="TextParagraph" font-family="Arial" font-size="353px" font-weight="400"><tspan class="TextPosition" x="9528" y="8315"><tspan fill="rgb(60,60,60)" stroke="none">40</tspan></tspan></tspan></text>
 <text class="TextShape"><tspan class="TextParagraph" font-family="Arial" font-size="353px" font-weight="400"><tspan class="TextPosition" x="10645" y="8315"><tspan fill="rgb(60,60,60)" stroke="none">45</tspan></tspan></tspan></text>
 <text class="TextShape"><tspan class="TextParagraph" font-family="Arial" font-size="353px" font-weight="400"><tspan class="TextPosition" x="11763" y="8315"><tspan fill="rgb(60,60,60)" stroke="none">50</tspan></tspan></tspan></text>
 <text class="TextShape"><tspan class="TextParagraph" font-family="Arial" font-size="353px" font-weight="400"><tspan class="TextPosition" x="1456" y="7868"><tspan fill="rgb(60,60,60)" stroke="none">0</tspan></tspan></tspan></text>
 <text class="TextShape"><tspan class="TextParagraph" font-family="Arial" font-size="353px" font-weight="400"><tspan class="TextPosition" x="1085" y="7150"><tspan fill="rgb(60,60,60)" stroke="none">100</tspan></tspan></tspan></text>
 <text class="TextShape"><tspan class="TextParagraph" font-family="Arial" font-size="353px" font-weight="400"><tspan class="TextPosition" x="1085" y="6432"><tspan fill="rgb(60,60,60)" stroke="none">200</tspan></tspan></tspan></text>
 <text class="TextShape"><tspan class="TextParagraph" font-family="Arial" font-size="353px" font-weight="400"><tspan class="TextPosition" x="1085" y="5714"><tspan fill="rgb(60,60,60)" stroke="none">300</tspan></tspan></tspan></text>
 <text class="TextShape"><tspan class="TextParagraph" font-family="Arial" font-size="353px" font-weight="400"><tspan class="TextPosition" x="1085" y="4996"><tspan fill="rgb(60,60,60)" stroke="none">400</tspan></tspan></tspan></text>
 <text class="TextShape"><tspan class="TextParagraph" font-family="Arial" font-size="353px" font-weight="400"><tspan class="TextPosition" x="1085" y="4279"><tspan fill="rgb(60,60,60)" stroke="none">500</tspan></tspan></tspan></text>
 <text class="TextShape"><tspan class="TextParagraph" font-family="Arial" font-size="353px" font-weight="400"><tspan class="TextPosition" x="1085" y="3561"><tspan fill="rgb(60,60,60)" stroke="none">600</tspan></tspan></tspan></text>
 <text class="TextShape"><tspan class="TextParagraph" font-family="Arial" font-size="353px" font-weight="400"><tspan class="TextPosition" x="1085" y="2843"><tspan fill="rgb(60,60,60)" stroke="none">700</tspan></tspan></tspan></text>
 <text class="TextShape"><tspan class="TextParagraph" font-family="Arial" font-size="353px" font-weight="400"><tspan class="TextPosition" x="1085" y="2125"><tspan fill="rgb(60,60,60)" stroke="none">800</tspan></tspan></tspan></text>
 <text class="TextShape"><tspan class="TextParagraph" font-family="Arial" font-size="353px" font-weight="400"><tspan class="TextPosition" x="1085" y="1408"><tspan fill="rgb(60,60,60)" stroke="none">900</tspan></tspan></tspan></text>
 <path fill="none" stroke="rgb(0,69,134)" stroke-width="105" stroke-linejoin="round" d="M 11944,3265 L 12744,3265"/>
 <path fill="none" stroke="rgb(255,66,14)" stroke-width="105" stroke-linejoin="round" d="M 11944,5927 L 12744,5927"/>
 <text class="TextShape"><tspan class="TextParagraph" font-family="Arial" font-size="353px" font-weight="400"><tspan class="TextPosition" x="12844" y="3408"><tspan fill="rgb(60,60,60)" stroke="none">Implementacja </tspan></tspan><tspan class="TextPosition" x="12844" y="3805"><tspan fill="rgb(60,60,60)" stroke="none">prosta, metoda 2</tspan></tspan></tspan></text>
 <text class="TextShape"><tspan class="TextParagraph" font-family="Arial" font-size="353px" font-weight="400"><tspan class="TextPosition" x="12844" y="6070"><tspan fill="rgb(60,60,60)" stroke="none">Implementacja </tspan></tspan><tspan class="TextPosition" x="12844" y="6467"><tspan fill="rgb(60,60,60)" stroke="none">prosta, metoda 1</tspan></tspan></tspan></text>
 <text class="TextShape"><tspan class="TextParagraph" font-family="Times New Roman" font-size="423px" font-weight="400"><tspan class="TextPosition" x="11972" y="7813"><tspan fill="rgb(0,0,0)" stroke="none">N</tspan></tspan></tspan></text>
 <text class="TextShape"><tspan class="TextParagraph" font-family="Times New Roman" font-size="423px" font-weight="400"><tspan class="TextPosition" x="864" y="519"><tspan fill="rgb(0,0,0)" stroke="none">t[s]</tspan></tspan></tspan></text>
</svg>