<?xml version="1.0" encoding="UTF-8"?>
<!DOCTYPE svg PUBLIC "-//W3C//DTD SVG 1.1//EN" "http://www.w3.org/Graphics/SVG/1.1/DTD/svg11.dtd">
<svg width="160mm" height="99mm" viewBox="0 0 16000 9900" version="1.1" baseProfile="tiny" xmlns="http://www.w3.org/2000/svg" stroke-width="28.222" stroke-linejoin="round" xml:space="preserve">
 <path fill="rgb(255,255,255)" stroke="none" d="M 7999,9934 L 0,9934 0,0 15997,0 15997,9934 7999,9934 Z"/>
 <path fill="none" stroke="rgb(179,179,179)" stroke-linejoin="round" d="M 6901,9087 L 1680,9087 1680,1165 12122,1165 12122,9087 6901,9087 Z"/>
 <path fill="none" stroke="rgb(179,179,179)" stroke-linejoin="round" d="M 12122,9086 L 1680,9086"/>
 <path fill="none" stroke="rgb(179,179,179)" stroke-linejoin="round" d="M 12122,7954 L 1680,7954"/>
 <path fill="none" stroke="rgb(179,179,179)" stroke-linejoin="round" d="M 12122,6822 L 1680,6822"/>
 <path fill="none" stroke="rgb(179,179,179)" stroke-linejoin="round" d="M 12122,5690 L 1680,5690"/>
 <path fill="none" stroke="rgb(179,179,179)" stroke-linejoin="round" d="M 12122,4559 L 1680,4559"/>
 <path fill="none" stroke="rgb(179,179,179)" stroke-linejoin="round" d="M 12122,3427 L 1680,3427"/>
 <path fill="none" stroke="rgb(179,179,179)" stroke-linejoin="round" d="M 12122,2295 L 1680,2295"/>
 <path fill="none" stroke="rgb(179,179,179)" stroke-linejoin="round" d="M 12122,1163 L 1680,1163"/>
 <path fill="none" stroke="rgb(179,179,179)" stroke-linejoin="round" d="M 1680,9236 L 1680,9086"/>
 <path fill="none" stroke="rgb(179,179,179)" stroke-linejoin="round" d="M 1680,9236 L 1680,9086"/>
 <path fill="none" stroke="rgb(179,179,179)" stroke-linejoin="round" d="M 2724,9236 L 2724,9086"/>
 <path fill="none" stroke="rgb(179,179,179)" stroke-linejoin="round" d="M 2724,9236 L 2724,9086"/>
 <path fill="none" stroke="rgb(179,179,179)" stroke-linejoin="round" d="M 3768,9236 L 3768,9086"/>
 <path fill="none" stroke="rgb(179,179,179)" stroke-linejoin="round" d="M 3768,9236 L 3768,9086"/>
 <path fill="none" stroke="rgb(179,179,179)" stroke-linejoin="round" d="M 4812,9236 L 4812,9086"/>
 <path fill="none" stroke="rgb(179,179,179)" stroke-linejoin="round" d="M 4812,9236 L 4812,9086"/>
 <path fill="none" stroke="rgb(179,179,179)" stroke-linejoin="round" d="M 5857,9236 L 5857,9086"/>
 <path fill="none" stroke="rgb(179,179,179)" stroke-linejoin="round" d="M 5857,9236 L 5857,9086"/>
 <path fill="none" stroke="rgb(179,179,179)" stroke-linejoin="round" d="M 6901,9236 L 6901,9086"/>
 <path fill="none" stroke="rgb(179,179,179)" stroke-linejoin="round" d="M 6901,9236 L 6901,9086"/>
 <path fill="none" stroke="rgb(179,179,179)" stroke-linejoin="round" d="M 7945,9236 L 7945,9086"/>
 <path fill="none" stroke="rgb(179,179,179)" stroke-linejoin="round" d="M 7945,9236 L 7945,9086"/>
 <path fill="none" stroke="rgb(179,179,179)" stroke-linejoin="round" d="M 8989,9236 L 8989,9086"/>
 <path fill="none" stroke="rgb(179,179,179)" stroke-linejoin="round" d="M 8989,9236 L 8989,9086"/>
 <path fill="none" stroke="rgb(179,179,179)" stroke-linejoin="round" d="M 10033,9236 L 10033,9086"/>
 <path fill="none" stroke="rgb(179,179,179)" stroke-linejoin="round" d="M 10033,9236 L 10033,9086"/>
 <path fill="none" stroke="rgb(179,179,179)" stroke-linejoin="round" d="M 11077,9236 L 11077,9086"/>
 <path fill="none" stroke="rgb(179,179,179)" stroke-linejoin="round" d="M 11077,9236 L 11077,9086"/>
 <path fill="none" stroke="rgb(179,179,179)" stroke-linejoin="round" d="M 12122,9236 L 12122,9086"/>
 <path fill="none" stroke="rgb(179,179,179)" stroke-linejoin="round" d="M 12122,9236 L 12122,9086"/>
 <path fill="none" stroke="rgb(179,179,179)" stroke-linejoin="round" d="M 1680,9086 L 12122,9086"/>
 <path fill="none" stroke="rgb(179,179,179)" stroke-linejoin="round" d="M 1530,9086 L 1680,9086"/>
 <path fill="none" stroke="rgb(179,179,179)" stroke-linejoin="round" d="M 1530,9086 L 1680,9086"/>
 <path fill="none" stroke="rgb(179,179,179)" stroke-linejoin="round" d="M 1530,7954 L 1680,7954"/>
 <path fill="none" stroke="rgb(179,179,179)" stroke-linejoin="round" d="M 1530,7954 L 1680,7954"/>
 <path fill="none" stroke="rgb(179,179,179)" stroke-linejoin="round" d="M 1530,6822 L 1680,6822"/>
 <path fill="none" stroke="rgb(179,179,179)" stroke-linejoin="round" d="M 1530,6822 L 1680,6822"/>
 <path fill="none" stroke="rgb(179,179,179)" stroke-linejoin="round" d="M 1530,5690 L 1680,5690"/>
 <path fill="none" stroke="rgb(179,179,179)" stroke-linejoin="round" d="M 1530,5690 L 1680,5690"/>
 <path fill="none" stroke="rgb(179,179,179)" stroke-linejoin="round" d="M 1530,4559 L 1680,4559"/>
 <path fill="none" stroke="rgb(179,179,179)" stroke-linejoin="round" d="M 1530,4559 L 1680,4559"/>
 <path fill="none" stroke="rgb(179,179,179)" stroke-linejoin="round" d="M 1530,3427 L 1680,3427"/>
 <path fill="none" stroke="rgb(179,179,179)" stroke-linejoin="round" d="M 1530,3427 L 1680,3427"/>
 <path fill="none" stroke="rgb(179,179,179)" stroke-linejoin="round" d="M 1530,2295 L 1680,2295"/>
 <path fill="none" stroke="rgb(179,179,179)" stroke-linejoin="round" d="M 1530,2295 L 1680,2295"/>
 <path fill="none" stroke="rgb(179,179,179)" stroke-linejoin="round" d="M 1530,1163 L 1680,1163"/>
 <path fill="none" stroke="rgb(179,179,179)" stroke-linejoin="round" d="M 1530,1163 L 1680,1163"/>
 <path fill="none" stroke="rgb(179,179,179)" stroke-linejoin="round" d="M 1680,9086 L 1680,1163"/>
 <path fill="none" stroke="rgb(255,66,14)" stroke-width="80" stroke-linejoin="round" d=""/>
 <path fill="none" stroke="rgb(255,66,14)" stroke-width="80" stroke-linejoin="round" d="M 2076,9086 L 2090,9085 2125,9085 2163,9085 2202,9085 2243,9085 2286,9085 2331,9085 2378,9085 2426,9085 2476,9085 2527,9084 2579,9084 2632,9084 2686,9084 2741,9084 2796,9084 2852,9083 2908,9083 2965,9083 3022,9082 3078,9082 3134,9082 3190,9081 3246,9081 3301,9081 3355,9080 3409,9080 3463,9079 3516,9079 3568,9078 3621,9077 3673,9077 3725,9076 3776,9075 3828,9074 3879,9073 3930,9073 3981,9071 4033,9070 4084,9069 4135,9068 4187,9066 4238,9065 4290,9063 4342,9061 4395,9060 4447,9058 4500,9056 4553,9054 4606,9051 4659,9049 4712,9047 4765,9044 4818,9042 4871,9039 4923,9036 4976,9033 5028,9030 5080,9027 5132,9024 5183,9021 5234,9018 5284,9014 5335,9011 5384,9008 5433,9004 5483,9000 5531,8997 5580,8992 5629,8988 5678,8984 5727,8979 5777,8974 5827,8968 5878,8962 5929,8956 5982,8949 6035,8941 6089,8934 6144,8925 6201,8916 6259,8907 6318,8896 6379,8885 6441,8874 6506,8861 6572,8848 6639,8833 6708,8818 6779,8801 6852,8783 6926,8764 7002,8744 7079,8722 7158,8698 7239,8673 7322,8646 7406,8617 7492,8586 7579,8553 7668,8519 7759,8482 7851,8443 7945,8401 8040,8357 8137,8310 8236,8260 8336,8207 8437,8150 8539,8088 8643,8022 8747,7951 8852,7875 8958,7792 9064,7704 9171,7609 9279,7508 9386,7399 9494,7283 9602,7159 9710,7026 9818,6885 9926,6735 10033,6576 10140,6407 10246,6228 10353,6041 10459,5846 10564,5642 10669,5432 10774,5214 10879,4991 10983,4762 11087,4527 11191,4287 11295,4043 11399,3795 11502,3544 11606,3289 11709,3032 11812,2774 11915,2513 12018,2252 12122,1990"/>
 <path fill="none" stroke="rgb(0,69,134)" stroke-width="80" stroke-linejoin="round" d="M 1680,9086 L 1699,9085 1718,9085 1737,9085 1757,9085 1777,9084 1798,9084 1819,9084 1841,9084 1864,9083 1888,9083 1913,9083 1939,9083 1966,9083 1995,9083 2025,9083 2057,9082 2090,9082 2125,9082 2163,9082 2202,9082 2243,9082 2286,9082 2331,9083 2378,9083 2426,9083 2476,9083 2527,9083 2579,9083 2632,9083 2686,9084 2741,9084 2796,9084 2852,9084 2908,9084 2965,9085 3022,9085 3078,9085 3134,9085 3190,9085 3246,9085 3301,9085 3355,9085 3409,9085 3463,9085 3516,9085 3568,9085 3621,9085 3673,9085 3725,9085 3776,9084 3828,9084 3879,9084 3930,9084 3981,9084 4033,9084 4084,9084 4135,9083 4187,9083 4238,9083 4290,9083 4342,9083 4395,9082 4447,9082 4500,9082 4553,9082 4606,9082 4659,9082 4712,9081 4765,9081 4818,9081 4871,9081 4923,9080 4976,9080 5028,9079 5080,9079 5132,9078 5183,9078 5234,9077 5284,9076 5335,9076 5384,9075 5433,9074 5483,9073 5531,9072 5580,9071 5629,9070 5678,9069 5727,9068 5777,9067 5827,9066 5878,9065 5929,9064 5982,9063 6035,9063 6089,9062 6144,9061 6201,9060 6259,9060 6318,9060 6379,9059 6441,9059 6506,9059 6572,9059 6639,9059 6708,9059 6779,9058 6852,9058 6926,9057 7002,9056 7079,9055 7158,9053 7239,9051 7322,9048 7406,9045 7492,9041 7579,9036 7668,9031 7759,9025 7851,9018 7945,9011 8040,9002 8137,8993 8236,8982 8336,8971 8437,8960 8539,8947 8643,8934 8747,8921 8852,8906 8958,8892 9064,8876 9171,8861 9279,8845 9386,8828 9494,8811 9602,8795 9710,8777 9818,8760 9926,8743 10033,8725 10140,8707 10246,8690 10353,8672 10459,8654 10564,8637 10669,8619 10774,8601 10879,8583 10983,8565 11087,8547 11191,8529 11295,8512 11399,8494 11502,8476 11606,8458 11709,8440 11812,8422 11915,8404 12018,8386 12122,8368"/>
 <text class="TextShape"><tspan class="TextParagraph" font-family="Liberation Sans, sans-serif" font-size="353px" font-weight="400"><tspan class="TextPosition" x="1587" y="9654"><tspan fill="rgb(0,0,0)" stroke="none">0</tspan></tspan></tspan></text>
 <text class="TextShape"><tspan class="TextParagraph" font-family="Liberation Sans, sans-serif" font-size="353px" font-weight="400"><tspan class="TextPosition" x="2539" y="9654"><tspan fill="rgb(0,0,0)" stroke="none">10</tspan></tspan></tspan></text>
 <text class="TextShape"><tspan class="TextParagraph" font-family="Liberation Sans, sans-serif" font-size="353px" font-weight="400"><tspan class="TextPosition" x="3583" y="9654"><tspan fill="rgb(0,0,0)" stroke="none">20</tspan></tspan></tspan></text>
 <text class="TextShape"><tspan class="TextParagraph" font-family="Liberation Sans, sans-serif" font-size="353px" font-weight="400"><tspan class="TextPosition" x="4627" y="9654"><tspan fill="rgb(0,0,0)" stroke="none">30</tspan></tspan></tspan></text>
 <text class="TextShape"><tspan class="TextParagraph" font-family="Liberation Sans, sans-serif" font-size="353px" font-weight="400"><tspan class="TextPosition" x="5672" y="9654"><tspan fill="rgb(0,0,0)" stroke="none">40</tspan></tspan></tspan></text>
 <text class="TextShape"><tspan class="TextParagraph" font-family="Liberation Sans, sans-serif" font-size="353px" font-weight="400"><tspan class="TextPosition" x="6716" y="9654"><tspan fill="rgb(0,0,0)" stroke="none">50</tspan></tspan></tspan></text>
 <text class="TextShape"><tspan class="TextParagraph" font-family="Liberation Sans, sans-serif" font-size="353px" font-weight="400"><tspan class="TextPosition" x="7760" y="9654"><tspan fill="rgb(0,0,0)" stroke="none">60</tspan></tspan></tspan></text>
 <text class="TextShape"><tspan class="TextParagraph" font-family="Liberation Sans, sans-serif" font-size="353px" font-weight="400"><tspan class="TextPosition" x="8805" y="9654"><tspan fill="rgb(0,0,0)" stroke="none">70</tspan></tspan></tspan></text>
 <text class="TextShape"><tspan class="TextParagraph" font-family="Liberation Sans, sans-serif" font-size="353px" font-weight="400"><tspan class="TextPosition" x="9849" y="9654"><tspan fill="rgb(0,0,0)" stroke="none">80</tspan></tspan></tspan></text>
 <text class="TextShape"><tspan class="TextParagraph" font-family="Liberation Sans, sans-serif" font-size="353px" font-weight="400"><tspan class="TextPosition" x="10893" y="9654"><tspan fill="rgb(0,0,0)" stroke="none">90</tspan></tspan></tspan></text>
 <text class="TextShape"><tspan class="TextParagraph" font-family="Liberation Sans, sans-serif" font-size="353px" font-weight="400"><tspan class="TextPosition" x="11845" y="9654"><tspan fill="rgb(0,0,0)" stroke="none">100</tspan></tspan></tspan></text>
 <text class="TextShape"><tspan class="TextParagraph" font-family="Liberation Sans, sans-serif" font-size="353px" font-weight="400"><tspan class="TextPosition" x="1245" y="9207"><tspan fill="rgb(0,0,0)" stroke="none">0</tspan></tspan></tspan></text>
 <text class="TextShape"><tspan class="TextParagraph" font-family="Liberation Sans, sans-serif" font-size="353px" font-weight="400"><tspan class="TextPosition" x="874" y="8075"><tspan fill="rgb(0,0,0)" stroke="none">200</tspan></tspan></tspan></text>
 <text class="TextShape"><tspan class="TextParagraph" font-family="Liberation Sans, sans-serif" font-size="353px" font-weight="400"><tspan class="TextPosition" x="874" y="6943"><tspan fill="rgb(0,0,0)" stroke="none">400</tspan></tspan></tspan></text>
 <text class="TextShape"><tspan class="TextParagraph" font-family="Liberation Sans, sans-serif" font-size="353px" font-weight="400"><tspan class="TextPosition" x="874" y="5811"><tspan fill="rgb(0,0,0)" stroke="none">600</tspan></tspan></tspan></text>
 <text class="TextShape"><tspan class="TextParagraph" font-family="Liberation Sans, sans-serif" font-size="353px" font-weight="400"><tspan class="TextPosition" x="874" y="4679"><tspan fill="rgb(0,0,0)" stroke="none">800</tspan></tspan></tspan></text>
 <text class="TextShape"><tspan class="TextParagraph" font-family="Liberation Sans, sans-serif" font-size="353px" font-weight="400"><tspan class="TextPosition" x="689" y="3547"><tspan fill="rgb(0,0,0)" stroke="none">1000</tspan></tspan></tspan></text>
 <text class="TextShape"><tspan class="TextParagraph" font-family="Liberation Sans, sans-serif" font-size="353px" font-weight="400"><tspan class="TextPosition" x="689" y="2415"><tspan fill="rgb(0,0,0)" stroke="none">1200</tspan></tspan></tspan></text>
 <text class="TextShape"><tspan class="TextParagraph" font-family="Liberation Sans, sans-serif" font-size="353px" font-weight="400"><tspan class="TextPosition" x="689" y="1283"><tspan fill="rgb(0,0,0)" stroke="none">1400</tspan></tspan></tspan></text>
 <path fill="none" stroke="rgb(0,69,134)" stroke-width="80" stroke-linejoin="round" d="M 13023,4717 L 13823,4717"/>
 <path fill="none" stroke="rgb(255,66,14)" stroke-width="80" stroke-linejoin="round" d="M 13023,5214 L 13823,5214"/>
 <text class="TextShape"><tspan class="TextParagraph" font-family="Liberation Sans, sans-serif" font-size="353px" font-weight="400"><tspan class="TextPosition" x="13923" y="4837"><tspan fill="rgb(0,0,0)" stroke="none">Równoległy</tspan></tspan></tspan></text>
 <text class="TextShape"><tspan class="TextParagraph" font-family="Liberation Sans, sans-serif" font-size="353px" font-weight="400"><tspan class="TextPosition" x="13923" y="5334"><tspan fill="rgb(0,0,0)" stroke="none">Szeregowy</tspan></tspan></tspan></text>
 <text class="TextShape"><tspan class="TextParagraph" font-family="Times New Roman, serif" font-size="423px" font-weight="400"><tspan class="TextPosition" x="575" y="634"><tspan fill="rgb(0,0,0)" stroke="none">t[s]</tspan></tspan></tspan></text>
 <text class="TextShape"><tspan class="TextParagraph" font-family="Times New Roman, serif" font-size="423px" font-weight="400"><tspan class="TextPosition" x="12650" y="9138"><tspan fill="rgb(0,0,0)" stroke="none">N</tspan></tspan></tspan></text>
</svg>