<?xml version="1.0" encoding="UTF-8"?>
<!DOCTYPE svg PUBLIC "-//W3C//DTD SVG 1.1//EN" "http://www.w3.org/Graphics/SVG/1.1/DTD/svg11.dtd">
<svg width="160mm" height="90mm" viewBox="0 0 16000 9000" version="1.1" baseProfile="tiny" xmlns="http://www.w3.org/2000/svg" stroke-width="28.222" stroke-linejoin="round" xml:space="preserve">
 <path fill="rgb(255,255,255)" stroke="none" d="M 7994,9003 L 0,9003 0,0 15988,0 15988,9003 7994,9003 Z"/>
 <path fill="none" stroke="rgb(179,179,179)" stroke-linejoin="round" d="M 8385,7676 L 1203,7676 1203,353 15567,353 15567,7676 8385,7676 Z"/>
 <path fill="none" stroke="rgb(179,179,179)" stroke-linejoin="round" d="M 15567,7675 L 1203,7675"/>
 <path fill="none" stroke="rgb(179,179,179)" stroke-linejoin="round" d="M 15567,6759 L 1203,6759"/>
 <path fill="none" stroke="rgb(179,179,179)" stroke-linejoin="round" d="M 15567,5844 L 1203,5844"/>
 <path fill="none" stroke="rgb(179,179,179)" stroke-linejoin="round" d="M 15567,4929 L 1203,4929"/>
 <path fill="none" stroke="rgb(179,179,179)" stroke-linejoin="round" d="M 15567,4013 L 1203,4013"/>
 <path fill="none" stroke="rgb(179,179,179)" stroke-linejoin="round" d="M 15567,3097 L 1203,3097"/>
 <path fill="none" stroke="rgb(179,179,179)" stroke-linejoin="round" d="M 15567,2183 L 1203,2183"/>
 <path fill="none" stroke="rgb(179,179,179)" stroke-linejoin="round" d="M 15567,1267 L 1203,1267"/>
 <path fill="none" stroke="rgb(179,179,179)" stroke-linejoin="round" d="M 15567,352 L 1203,352"/>
 <path fill="none" stroke="rgb(179,179,179)" stroke-linejoin="round" d="M 1203,7825 L 1203,7675"/>
 <path fill="none" stroke="rgb(179,179,179)" stroke-linejoin="round" d="M 1203,7825 L 1203,7675"/>
 <path fill="none" stroke="rgb(179,179,179)" stroke-linejoin="round" d="M 2639,7825 L 2639,7675"/>
 <path fill="none" stroke="rgb(179,179,179)" stroke-linejoin="round" d="M 2639,7825 L 2639,7675"/>
 <path fill="none" stroke="rgb(179,179,179)" stroke-linejoin="round" d="M 4076,7825 L 4076,7675"/>
 <path fill="none" stroke="rgb(179,179,179)" stroke-linejoin="round" d="M 4076,7825 L 4076,7675"/>
 <path fill="none" stroke="rgb(179,179,179)" stroke-linejoin="round" d="M 5512,7825 L 5512,7675"/>
 <path fill="none" stroke="rgb(179,179,179)" stroke-linejoin="round" d="M 5512,7825 L 5512,7675"/>
 <path fill="none" stroke="rgb(179,179,179)" stroke-linejoin="round" d="M 6949,7825 L 6949,7675"/>
 <path fill="none" stroke="rgb(179,179,179)" stroke-linejoin="round" d="M 6949,7825 L 6949,7675"/>
 <path fill="none" stroke="rgb(179,179,179)" stroke-linejoin="round" d="M 8384,7825 L 8384,7675"/>
 <path fill="none" stroke="rgb(179,179,179)" stroke-linejoin="round" d="M 8384,7825 L 8384,7675"/>
 <path fill="none" stroke="rgb(179,179,179)" stroke-linejoin="round" d="M 9821,7825 L 9821,7675"/>
 <path fill="none" stroke="rgb(179,179,179)" stroke-linejoin="round" d="M 9821,7825 L 9821,7675"/>
 <path fill="none" stroke="rgb(179,179,179)" stroke-linejoin="round" d="M 11257,7825 L 11257,7675"/>
 <path fill="none" stroke="rgb(179,179,179)" stroke-linejoin="round" d="M 11257,7825 L 11257,7675"/>
 <path fill="none" stroke="rgb(179,179,179)" stroke-linejoin="round" d="M 12694,7825 L 12694,7675"/>
 <path fill="none" stroke="rgb(179,179,179)" stroke-linejoin="round" d="M 12694,7825 L 12694,7675"/>
 <path fill="none" stroke="rgb(179,179,179)" stroke-linejoin="round" d="M 14130,7825 L 14130,7675"/>
 <path fill="none" stroke="rgb(179,179,179)" stroke-linejoin="round" d="M 14130,7825 L 14130,7675"/>
 <path fill="none" stroke="rgb(179,179,179)" stroke-linejoin="round" d="M 15567,7825 L 15567,7675"/>
 <path fill="none" stroke="rgb(179,179,179)" stroke-linejoin="round" d="M 15567,7825 L 15567,7675"/>
 <path fill="none" stroke="rgb(179,179,179)" stroke-linejoin="round" d="M 1203,7675 L 15567,7675"/>
 <path fill="none" stroke="rgb(179,179,179)" stroke-linejoin="round" d="M 1053,7675 L 1203,7675"/>
 <path fill="none" stroke="rgb(179,179,179)" stroke-linejoin="round" d="M 1053,7675 L 1203,7675"/>
 <path fill="none" stroke="rgb(179,179,179)" stroke-linejoin="round" d="M 1053,6759 L 1203,6759"/>
 <path fill="none" stroke="rgb(179,179,179)" stroke-linejoin="round" d="M 1053,6759 L 1203,6759"/>
 <path fill="none" stroke="rgb(179,179,179)" stroke-linejoin="round" d="M 1053,5844 L 1203,5844"/>
 <path fill="none" stroke="rgb(179,179,179)" stroke-linejoin="round" d="M 1053,5844 L 1203,5844"/>
 <path fill="none" stroke="rgb(179,179,179)" stroke-linejoin="round" d="M 1053,4929 L 1203,4929"/>
 <path fill="none" stroke="rgb(179,179,179)" stroke-linejoin="round" d="M 1053,4929 L 1203,4929"/>
 <path fill="none" stroke="rgb(179,179,179)" stroke-linejoin="round" d="M 1053,4013 L 1203,4013"/>
 <path fill="none" stroke="rgb(179,179,179)" stroke-linejoin="round" d="M 1053,4013 L 1203,4013"/>
 <path fill="none" stroke="rgb(179,179,179)" stroke-linejoin="round" d="M 1053,3097 L 1203,3097"/>
 <path fill="none" stroke="rgb(179,179,179)" stroke-linejoin="round" d="M 1053,3097 L 1203,3097"/>
 <path fill="none" stroke="rgb(179,179,179)" stroke-linejoin="round" d="M 1053,2183 L 1203,2183"/>
 <path fill="none" stroke="rgb(179,179,179)" stroke-linejoin="round" d="M 1053,2183 L 1203,2183"/>
 <path fill="none" stroke="rgb(179,179,179)" stroke-linejoin="round" d="M 1053,1267 L 1203,1267"/>
 <path fill="none" stroke="rgb(179,179,179)" stroke-linejoin="round" d="M 1053,1267 L 1203,1267"/>
 <path fill="none" stroke="rgb(179,179,179)" stroke-linejoin="round" d="M 1053,352 L 1203,352"/>
 <path fill="none" stroke="rgb(179,179,179)" stroke-linejoin="round" d="M 1053,352 L 1203,352"/>
 <path fill="none" stroke="rgb(179,179,179)" stroke-linejoin="round" d="M 1203,7675 L 1203,352"/>
 <path fill="none" stroke="rgb(0,69,134)" stroke-width="80" stroke-linejoin="round" d="M 1203,352 L 8384,352 8384,1267 11975,1267 11975,2183 13771,2183 13771,3097 14669,3097 14669,4013 15118,4013 15118,4929 15342,4929 15342,5844 15454,5844 15454,6759 15567,6759 15567,7675"/>
 <text class="TextShape"><tspan class="TextParagraph" font-family="Liberation Sans, sans-serif" font-size="353px" font-weight="400"><tspan class="TextPosition" x="1110" y="8243"><tspan fill="rgb(0,0,0)" stroke="none">0</tspan></tspan></tspan></text>
 <text class="TextShape"><tspan class="TextParagraph" font-family="Liberation Sans, sans-serif" font-size="353px" font-weight="400"><tspan class="TextPosition" x="2454" y="8243"><tspan fill="rgb(0,0,0)" stroke="none">10</tspan></tspan></tspan></text>
 <text class="TextShape"><tspan class="TextParagraph" font-family="Liberation Sans, sans-serif" font-size="353px" font-weight="400"><tspan class="TextPosition" x="3891" y="8243"><tspan fill="rgb(0,0,0)" stroke="none">20</tspan></tspan></tspan></text>
 <text class="TextShape"><tspan class="TextParagraph" font-family="Liberation Sans, sans-serif" font-size="353px" font-weight="400"><tspan class="TextPosition" x="5327" y="8243"><tspan fill="rgb(0,0,0)" stroke="none">30</tspan></tspan></tspan></text>
 <text class="TextShape"><tspan class="TextParagraph" font-family="Liberation Sans, sans-serif" font-size="353px" font-weight="400"><tspan class="TextPosition" x="6764" y="8243"><tspan fill="rgb(0,0,0)" stroke="none">40</tspan></tspan></tspan></text>
 <text class="TextShape"><tspan class="TextParagraph" font-family="Liberation Sans, sans-serif" font-size="353px" font-weight="400"><tspan class="TextPosition" x="8200" y="8243"><tspan fill="rgb(0,0,0)" stroke="none">50</tspan></tspan></tspan></text>
 <text class="TextShape"><tspan class="TextParagraph" font-family="Liberation Sans, sans-serif" font-size="353px" font-weight="400"><tspan class="TextPosition" x="9637" y="8243"><tspan fill="rgb(0,0,0)" stroke="none">60</tspan></tspan></tspan></text>
 <text class="TextShape"><tspan class="TextParagraph" font-family="Liberation Sans, sans-serif" font-size="353px" font-weight="400"><tspan class="TextPosition" x="11073" y="8243"><tspan fill="rgb(0,0,0)" stroke="none">70</tspan></tspan></tspan></text>
 <text class="TextShape"><tspan class="TextParagraph" font-family="Liberation Sans, sans-serif" font-size="353px" font-weight="400"><tspan class="TextPosition" x="12510" y="8243"><tspan fill="rgb(0,0,0)" stroke="none">80</tspan></tspan></tspan></text>
 <text class="TextShape"><tspan class="TextParagraph" font-family="Liberation Sans, sans-serif" font-size="353px" font-weight="400"><tspan class="TextPosition" x="13946" y="8243"><tspan fill="rgb(0,0,0)" stroke="none">90</tspan></tspan></tspan></text>
 <text class="TextShape"><tspan class="TextParagraph" font-family="Liberation Sans, sans-serif" font-size="353px" font-weight="400"><tspan class="TextPosition" x="15290" y="8243"><tspan fill="rgb(0,0,0)" stroke="none">100</tspan></tspan></tspan></text>
 <text class="TextShape"><tspan class="TextParagraph" font-family="Liberation Sans, sans-serif" font-size="353px" font-weight="400"><tspan class="TextPosition" x="768" y="7796"><tspan fill="rgb(0,0,0)" stroke="none">0</tspan></tspan></tspan></text>
 <text class="TextShape"><tspan class="TextParagraph" font-family="Liberation Sans, sans-serif" font-size="353px" font-weight="400"><tspan class="TextPosition" x="768" y="6880"><tspan fill="rgb(0,0,0)" stroke="none">1</tspan></tspan></tspan></text>
 <text class="TextShape"><tspan class="TextParagraph" font-family="Liberation Sans, sans-serif" font-size="353px" font-weight="400"><tspan class="TextPosition" x="768" y="5964"><tspan fill="rgb(0,0,0)" stroke="none">2</tspan></tspan></tspan></text>
 <text class="TextShape"><tspan class="TextParagraph" font-family="Liberation Sans, sans-serif" font-size="353px" font-weight="400"><tspan class="TextPosition" x="768" y="5049"><tspan fill="rgb(0,0,0)" stroke="none">3</tspan></tspan></tspan></text>
 <text class="TextShape"><tspan class="TextParagraph" font-family="Liberation Sans, sans-serif" font-size="353px" font-weight="400"><tspan class="TextPosition" x="768" y="4134"><tspan fill="rgb(0,0,0)" stroke="none">4</tspan></tspan></tspan></text>
 <text class="TextShape"><tspan class="TextParagraph" font-family="Liberation Sans, sans-serif" font-size="353px" font-weight="400"><tspan class="TextPosition" x="768" y="3218"><tspan fill="rgb(0,0,0)" stroke="none">5</tspan></tspan></tspan></text>
 <text class="TextShape"><tspan class="TextParagraph" font-family="Liberation Sans, sans-serif" font-size="353px" font-weight="400"><tspan class="TextPosition" x="768" y="2303"><tspan fill="rgb(0,0,0)" stroke="none">6</tspan></tspan></tspan></text>
 <text class="TextShape"><tspan class="TextParagraph" font-family="Liberation Sans, sans-serif" font-size="353px" font-weight="400"><tspan class="TextPosition" x="768" y="1387"><tspan fill="rgb(0,0,0)" stroke="none">7</tspan></tspan></tspan></text>
 <text class="TextShape"><tspan class="TextParagraph" font-family="Liberation Sans, sans-serif" font-size="353px" font-weight="400"><tspan class="TextPosition" x="768" y="472"><tspan fill="rgb(0,0,0)" stroke="none">8</tspan></tspan></tspan></text>
 <text class="TextShape"><tspan class="TextParagraph" font-family="Liberation Sans, sans-serif" font-size="318px" font-weight="400"><tspan class="TextPosition" x="7989" y="8830"><tspan fill="rgb(0,0,0)" stroke="none">T[%]</tspan></tspan></tspan></text>
 <text class="TextShape"><tspan class="TextParagraph" font-family="Liberation Sans, sans-serif" font-size="318px" font-weight="400"><tspan class="TextPosition" x="386" y="4344" transform="translate(386,4344) rotate(-90) translate(-386,-4344)"><tspan fill="rgb(0,0,0)" stroke="none">P</tspan></tspan></tspan></text>
</svg>